<?xml version="1.0" encoding="UTF-8" standalone="no"?>
<!DOCTYPE svg PUBLIC "-//W3C//DTD SVG 1.1//EN"
 "http://www.w3.org/Graphics/SVG/1.1/DTD/svg11.dtd">
<!-- Generated by graphviz version 6.0.2 (20221011.1828)
 -->
<!-- Title: G Pages: 1 -->
<svg width="138pt" height="139pt"
 viewBox="0.00 0.00 137.60 139.00" xmlns="http://www.w3.org/2000/svg" xmlns:xlink="http://www.w3.org/1999/xlink">
<g id="graph0" class="graph" transform="scale(1 1) rotate(0) translate(4 135)">
<title>G</title>
<polygon fill="white" stroke="none" points="-4,4 -4,-135 133.6,-135 133.6,4 -4,4"/>
<text text-anchor="middle" x="64.8" y="-7.8" font-family="Times New Roman,serif" font-size="14.00">węzły:3</text>
<!-- N1911006827 -->
<g id="node1" class="node">
<title>N1911006827</title>
<ellipse fill="none" stroke="black" cx="64" cy="-113" rx="27" ry="18"/>
<text text-anchor="middle" x="64" y="-109.3" font-family="Times New Roman,serif" font-size="14.00">+</text>
</g>
<!-- N1967205423 -->
<g id="node2" class="node">
<title>N1967205423</title>
<ellipse fill="none" stroke="black" cx="27" cy="-41" rx="27" ry="18"/>
<text text-anchor="middle" x="27" y="-37.3" font-family="Times New Roman,serif" font-size="14.00">2.0</text>
</g>
<!-- N1911006827&#45;&gt;N1967205423 -->
<g id="edge1" class="edge">
<title>N1911006827&#45;&gt;N1967205423</title>
<path fill="none" stroke="black" d="M55.42,-95.76C50.94,-87.28 45.35,-76.71 40.32,-67.2"/>
<polygon fill="black" stroke="black" points="43.3,-65.35 35.54,-58.15 37.11,-68.62 43.3,-65.35"/>
</g>
<!-- N42121758 -->
<g id="node3" class="node">
<title>N42121758</title>
<ellipse fill="none" stroke="black" cx="101" cy="-41" rx="28.7" ry="18"/>
<text text-anchor="middle" x="101" y="-37.3" font-family="Times New Roman,serif" font-size="14.00">1.0X</text>
</g>
<!-- N1911006827&#45;&gt;N42121758 -->
<g id="edge2" class="edge">
<title>N1911006827&#45;&gt;N42121758</title>
<path fill="none" stroke="black" d="M72.58,-95.76C77,-87.4 82.49,-77.02 87.47,-67.61"/>
<polygon fill="black" stroke="black" points="90.63,-69.11 92.21,-58.63 84.44,-65.84 90.63,-69.11"/>
</g>
</g>
</svg>
