-- TINY GP (Java version) --
SEED=-1
MAX_LEN=10000
POPSIZE=100000
DEPTH=5
CROSSOVER_PROB=0.9
PMUT_PER_NODE=0.05
MIN_RANDOM=-5.0
MAX_RANDOM=5.0
GENERATIONS=20
TSIZE=2
----------------------------------
Generation=0 Avg Fitness=2.5118975991048363E8 Best Fitness=2.2662428414815676E8 Avg Size=10.98922
Best Individual: (((4.345048212653637 * (4.974914646073804 / (-0.010116137329962527 / -2.261837323643615))) * (((3.369285349032431 * X1 ) - 1.848530115629437) + 4.21175265504435)) / ((-3.033310124086981 * -2.1886233140348788) + (((-1.1367863534914835 * 4.879225413818437) * -0.18889944477865406) / -3.8337195507619857)))
Generation=1 Avg Fitness=2.5118529438403776E8 Best Fitness=1.994380229041907E8 Avg Size=11.32194
Best Individual: (((4.345048212653637 * (4.974914646073804 / (-0.010116137329962527 / -2.261837323643615))) * (((3.369285349032431 * X1 ) - 1.848530115629437) + 4.21175265504435)) / ((-3.033310124086981 * -1.0149207105332958) + (((-1.1367863534914835 * 4.879225413818437) * -0.18889944477865406) / -3.8337195507619857)))
Generation=2 Avg Fitness=2.511773086066314E8 Best Fitness=5.889403250244075E7 Avg Size=12.95786
Best Individual: (((((4.974914646073804 * X1 ) * (4.964246794776997 + -0.281216205837894)) - 1.6069124745132353) * 3.369285349032431) * (4.782211837875961 + ((X1  * 4.345048212653637) + -1.6046604850945787)))
Generation=3 Avg Fitness=2.5113374165169516E8 Best Fitness=3117565.3089154093 Avg Size=15.93018
Best Individual: ((((-1.260052296826565 / (-1.2930882203207892 * 2.1112716224472123)) - (X1  + 4.336622433998002)) * X1 ) * (1.0678346436039412 - (2.2383724219825085 - ((X1  * -4.7225096028562366) + (-2.212555305133388 + -0.26781846005503507)))))
Generation=4 Avg Fitness=2.5183772208822575E8 Best Fitness=3117565.3089154093 Avg Size=19.88292
Best Individual: ((((-1.260052296826565 / (-1.2930882203207892 * 2.1112716224472123)) - (X1  + 4.336622433998002)) * X1 ) * (1.0678346436039412 - (2.2383724219825085 - ((X1  * -4.7225096028562366) + (-2.212555305133388 + -0.26781846005503507)))))
Generation=5 Avg Fitness=2.893772972565881E8 Best Fitness=2700832.360453352 Avg Size=24.5332
Best Individual: ((X1  * ((0.15021673121125367 / 4.345048212653637) + (((X1  + (X1  * (X1  - -1.6046604850945787))) * 4.782211837875961) + 2.0558685229372085))) + (4.345048212653637 * (4.336622433998002 - 2.2383724219825085)))
Generation=6 Avg Fitness=1.0169158082043921E9 Best Fitness=1313846.8406231105 Avg Size=29.68004
Best Individual: (X1  * (((X1  * (((4.974914646073804 * X1 ) * sin(-4.7225096028562366)) - -2.074355432363352)) - 1.6069124745132353) + ((-0.26781846005503507 + -4.979561827121862) - 4.7283694207524345)))
Generation=7 Avg Fitness=2.5540426424257175E10 Best Fitness=591041.5576824562 Avg Size=35.08066
Best Individual: ((X1  * (X1  * (X1  * 4.964246794776997))) - sin(-4.835926656686609))
Generation=8 Avg Fitness=3.694959848408034E10 Best Fitness=255944.61634023243 Avg Size=40.9542
Best Individual: ((X1  * (X1  * (X1  * 4.974914646073804))) - (4.345048212653637 / (4.345048212653637 * 2.1625317779728466)))
Generation=9 Avg Fitness=1.0474205993810974E12 Best Fitness=255944.61634023243 Avg Size=47.06272
Best Individual: ((X1  * (X1  * (X1  * 4.974914646073804))) - (4.345048212653637 / (4.345048212653637 * 2.1625317779728466)))
Generation=10 Avg Fitness=1.4493412323658489E12 Best Fitness=230498.47111130602 Avg Size=52.59214
Best Individual: ((((-1.260052296826565 / 3.672768683327245) - (X1  + -0.010116137329962527)) * X1 ) * (1.0678346436039412 - (2.2383724219825085 - ((X1  * -4.995883408933375) + (3.672768683327245 - -1.1367863534914835)))))
Generation=11 Avg Fitness=8.184307099281019E13 Best Fitness=184552.17309961905 Avg Size=57.10204
Best Individual: (X1  * (((X1  * (((4.974914646073804 * X1 ) * sin(-4.7225096028562366)) - -2.074355432363352)) - 3.6147362045902174) + (4.8605041314036495 / cos(-1.6046604850945787))))
Generation=12 Avg Fitness=6.139831013610987E15 Best Fitness=138137.25926710086 Avg Size=60.52746
Best Individual: (1.9148384888065904 + ((X1  * (4.896996685797639 + (((-0.281216205837894 + (2.0558685229372085 - -3.8337195507619857)) / -0.18889944477865406) + ((X1  - ((X1  * -3.9822160118725725) + cos(((((-4.7225096028562366 / 0.15021673121125367) * 1.7209157491248073) / 2.6264463851546083) / 1.8566891200869442)))) * X1 )))) - ((((-3.6112234454011616 / 2.8738604221431894) + 4.348575950361935) * 3.0109581419142426) / 4.879225413818437)))
Generation=13 Avg Fitness=2.1898695599929306E14 Best Fitness=87268.54693934781 Avg Size=65.43592
Best Individual: (-1.1367863534914835 + ((X1  * (4.896996685797639 + (3.369285349032431 + ((X1  - ((X1  * -3.9822160118725725) + cos(((((-4.7225096028562366 / 0.7645652270850887) * 1.7209157491248073) / 3.380750504196765) / 1.8566891200869442)))) * X1 )))) - ((((-3.6112234454011616 / 2.8738604221431894) + (((-1.1910121249074512 * -1.1367863534914835) * 4.345048212653637) / -3.6404140045179867)) * (cos((1.8566891200869442 / 0.3021512240376465)) + ((X1  * 4.487808640226822) - ((-3.033310124086981 * X1 ) / (-0.18889944477865406 / -3.9822160118725725))))) / -3.033310124086981)))
Generation=14 Avg Fitness=3.050547588831376E17 Best Fitness=87268.54693934781 Avg Size=74.0958
Best Individual: (-1.1367863534914835 + ((X1  * (4.896996685797639 + (3.369285349032431 + ((X1  - ((X1  * -3.9822160118725725) + cos(((((-4.7225096028562366 / 0.7645652270850887) * 1.7209157491248073) / 3.380750504196765) / 1.8566891200869442)))) * X1 )))) - ((((-3.6112234454011616 / 2.8738604221431894) + (((-1.1910121249074512 * -1.1367863534914835) * 4.345048212653637) / -3.6404140045179867)) * (cos((1.8566891200869442 / 0.3021512240376465)) + ((X1  * 4.487808640226822) - ((-3.033310124086981 * X1 ) / (-0.18889944477865406 / -3.9822160118725725))))) / -3.033310124086981)))
Generation=15 Avg Fitness=6.061816828838478E13 Best Fitness=87268.54693934781 Avg Size=79.71642
Best Individual: (-1.1367863534914835 + ((X1  * (4.896996685797639 + (3.369285349032431 + ((X1  - ((X1  * -3.9822160118725725) + cos(((((-4.7225096028562366 / 0.7645652270850887) * 1.7209157491248073) / 3.380750504196765) / 1.8566891200869442)))) * X1 )))) - ((((-3.6112234454011616 / 2.8738604221431894) + (((-1.1910121249074512 * -1.1367863534914835) * 4.345048212653637) / -3.6404140045179867)) * (cos((1.8566891200869442 / 0.3021512240376465)) + ((X1  * 4.487808640226822) - ((-3.033310124086981 * X1 ) / (-0.18889944477865406 / -3.9822160118725725))))) / -3.033310124086981)))
Generation=16 Avg Fitness=7.8603556420892672E18 Best Fitness=68131.54327929635 Avg Size=87.55158
Best Individual: (1.9148384888065904 + ((X1  * (4.896996685797639 + ((-2.1886233140348788 * ((-3.6404140045179867 / 2.107721369609635) + 4.698054555782129)) + ((X1  - ((X1  * -3.9822160118725725) + cos((((((X1  - -1.6046604850945787) / (2.107721369609635 + (4.879225413818437 * (4.345048212653637 - (4.896996685797639 / (4.974914646073804 * X1 )))))) * 1.7209157491248073) / 2.6264463851546083) / 1.8566891200869442)))) * X1 )))) - ((((-3.6112234454011616 / cos(-0.18889944477865406)) + X1 ) * 4.348575950361935) / (cos((1.8566891200869442 / (X1  * (X1  / (sin(1.1122583570982316) / 4.345048212653637))))) + -0.5142784857800695))))
Generation=17 Avg Fitness=3.9862311986860344E16 Best Fitness=67544.28651725873 Avg Size=94.44778
Best Individual: (1.9148384888065904 + ((X1  * (4.896996685797639 + ((-2.1886233140348788 * ((-3.6404140045179867 / 2.107721369609635) + 4.698054555782129)) + ((X1  - ((X1  * -3.9822160118725725) + cos((((((X1  - -1.6046604850945787) / (2.107721369609635 + (4.879225413818437 * (4.345048212653637 - (3.380750504196765 / (4.974914646073804 * X1 )))))) * 1.7209157491248073) / 2.6264463851546083) / 1.8566891200869442)))) * X1 )))) - ((((-3.6112234454011616 / cos(-0.18889944477865406)) + X1 ) * 4.348575950361935) / (cos((1.8566891200869442 / (X1  * (X1  / (sin(1.1122583570982316) / 4.345048212653637))))) + -0.5142784857800695))))
Generation=18 Avg Fitness=2.5891380743181252E16 Best Fitness=23009.505733709186 Avg Size=102.11348
Best Individual: (X1  * (((X1  * (((4.974914646073804 * X1 ) * sin(-4.7225096028562366)) - (cos((-3.345431519519825 + (2.2383724219825085 - ((X1  * (0.07007666100998833 / 3.380750504196765)) + -1.1367863534914835)))) / ((0.7645652270850887 - (((2.1675004510253713 / 2.2383724219825085) / 2.5290603567371353) - cos((sin(cos(-0.15200638979413306)) - -2.79940910721061)))) - (sin((-3.6404140045179867 - (1.9148384888065904 + cos((-1.260052296826565 / -0.2637370338920082))))) - 1.8566891200869442))))) - 3.380750504196765) + 1.6069124745132353))
Generation=19 Avg Fitness=5.2380840720937944E14 Best Fitness=16812.346332743055 Avg Size=113.48562
Best Individual: (1.9148384888065904 + ((X1  * (4.896996685797639 + ((-2.1886233140348788 * ((-3.6404140045179867 / -4.7225096028562366) + 4.698054555782129)) + ((X1  - ((X1  * -3.9822160118725725) + cos((((((X1  - -1.6046604850945787) / (2.107721369609635 + (4.879225413818437 * (4.345048212653637 - (3.380750504196765 / (4.974914646073804 * X1 )))))) * 1.7209157491248073) / 2.6264463851546083) / 1.8566891200869442)))) * X1 )))) - ((((-3.6112234454011616 / cos(-0.18889944477865406)) + X1 ) * 4.348575950361935) / (cos((1.8566891200869442 / (X1  * (X1  / (sin(1.1122583570982316) / 4.345048212653637))))) + -0.5142784857800695))))
PROBLEM *NOT* SOLVED
Time:35.464145sek==0.5910690833333334min
