-- TINY GP (Java version) --
SEED=-1
MAX_LEN=10000
POPSIZE=100000
DEPTH=5
CROSSOVER_PROB=0.9
PMUT_PER_NODE=0.05
MIN_RANDOM=-5.0
MAX_RANDOM=5.0
GENERATIONS=20
TSIZE=2
----------------------------------
Generation=0 Avg Fitness=2.5502526153201343E11 Best Fitness=2.550010407009716E11 Avg Size=11.00738
Best Individual: ((-2.6221569508863407 / ((2.8959782568493306 + -1.7656214240465875) / (X1  + -1.2932100966482487))) / (cos(-4.877209925493997) + sin(cos(1.7463315370015557))))
Generation=1 Avg Fitness=2.5502525545696463E11 Best Fitness=2.550010407009716E11 Avg Size=11.00294
Best Individual: ((-2.6221569508863407 / ((2.8959782568493306 + -1.7656214240465875) / (X1  + -1.2932100966482487))) / (cos(-4.877209925493997) + sin(cos(1.7463315370015557))))
Generation=2 Avg Fitness=2.5502399245633652E11 Best Fitness=1.315627049137451E11 Avg Size=12.25564
Best Individual: (X1  * ((cos(-0.8391932847351677) + ((-3.7978008450654355 + 1.5702802000276233) - (-2.4205971332860488 * X1 ))) * X1 ))
Generation=3 Avg Fitness=2.5502374025708316E11 Best Fitness=7.846264884509291E10 Avg Size=14.3034
Best Individual: (((1.2826476655379482 - -4.830699152455056) / (-3.2890849853522175 - -4.877209925493997)) + (((4.348256012718588 / -4.087554039193581) + ((-4.238142240827801 + (X1  * ((-4.674913754699377 + X1 ) * -1.2932100966482487))) + -4.674913754699377)) * (X1  * -2.676765180988511)))
Generation=4 Avg Fitness=2.5510908596622073E11 Best Fitness=3.340821512898957E10 Avg Size=16.9832
Best Individual: (((X1  * 4.348256012718588) * (((-4.830699152455056 + -0.558517318989928) * (2.7876846497707 * -3.7978008450654355)) + (X1  + -4.830699152455056))) * X1 )
Generation=5 Avg Fitness=6.330750526850464E11 Best Fitness=6.272673991840874E9 Avg Size=21.45786
Best Individual: (((3.731191282414626 - ((((3.6316517976793747 / -4.830699152455056) / -0.2664834047038003) - ((-4.674913754699377 + ((4.43528611472534 + (-3.628995066060953 * X1 )) * X1 )) / sin(-0.8391932847351677))) + -4.087554039193581)) + 2.165206952600208) * X1 )
Generation=6 Avg Fitness=1.5044325686045974E12 Best Fitness=1.7400118926977983E9 Avg Size=28.2256
Best Individual: (((((X1  + 2.8640074235032795) * (X1  + cos((-4.1131591868889785 - 1.7463315370015557)))) - -4.362878565030539) * 4.965974145573259) * (-4.097337236315674 + X1 ))
Generation=7 Avg Fitness=1.435415795379485E13 Best Fitness=1.346443116402361E8 Avg Size=36.89048
Best Individual: ((cos(cos(sin(-4.903110449268857))) / -0.2507555257544425) * (((X1  - -3.628995066060953) * (-4.362878565030539 - ((2.165206952600208 + (X1  * (-1.0635536265683188 + (X1  + (0.3028319330530538 + -3.628995066060953))))) + 2.1540485920947905))) / cos(sin(-4.1131591868889785))))
Generation=8 Avg Fitness=6.041642000419969E14 Best Fitness=1.346443116402361E8 Avg Size=46.66776
Best Individual: ((cos(cos(sin(-4.903110449268857))) / -0.2507555257544425) * (((X1  - -3.628995066060953) * (-4.362878565030539 - ((2.165206952600208 + (X1  * (-1.0635536265683188 + (X1  + (0.3028319330530538 + -3.628995066060953))))) + 2.1540485920947905))) / cos(sin(-4.1131591868889785))))
Generation=9 Avg Fitness=1.3940969340447496E17 Best Fitness=1.346443116402361E8 Avg Size=55.07724
Best Individual: ((cos(cos(sin(-4.903110449268857))) / -0.2507555257544425) * (((X1  - -3.628995066060953) * (-4.362878565030539 - ((2.165206952600208 + (X1  * (-1.0635536265683188 + (X1  + (0.3028319330530538 + -3.628995066060953))))) + 2.1540485920947905))) / cos(sin(-4.1131591868889785))))
Generation=10 Avg Fitness=1.0535804576324222E16 Best Fitness=1.346443116402361E8 Avg Size=59.43038
Best Individual: ((cos(cos(sin(-4.903110449268857))) / -0.2507555257544425) * (((X1  - -3.628995066060953) * (-4.362878565030539 - ((2.165206952600208 + (X1  * (-1.0635536265683188 + (X1  + (0.3028319330530538 + -3.628995066060953))))) + 2.1540485920947905))) / cos(sin(-4.1131591868889785))))
Generation=11 Avg Fitness=1.309387228739725E19 Best Fitness=1.1982647092827475E8 Avg Size=62.08224
Best Individual: (((1.7463315370015557 * ((X1  * 2.8640074235032795) - -4.087554039193581)) * ((X1  + sin(-3.4447940392776975)) + (sin(1.5164919675572053) + -0.1603352865026384))) * ((2.7850127357675483 * cos(2.7850127357675483)) + X1 ))
Generation=12 Avg Fitness=2.1904179461204662E21 Best Fitness=7.458121172507319E7 Avg Size=66.33786
Best Individual: (((1.7463315370015557 * ((X1  * 2.8640074235032795) - -4.087554039193581)) * ((X1  + sin(-3.4447940392776975)) + (sin(1.5164919675572053) + -0.1603352865026384))) * ((X1  - 4.965974145573259) + 1.8848192754970308))
Generation=13 Avg Fitness=2.3089290242094732E21 Best Fitness=7.194248219282778E7 Avg Size=72.70536
Best Individual: (((1.7463315370015557 * ((X1  * 2.8640074235032795) - -4.087554039193581)) * ((X1  + cos(-3.4447940392776975)) + (sin(1.5164919675572053) + -3.7978008450654355))) * (X1  + 1.8848192754970308))
Generation=14 Avg Fitness=7.543303483364798E23 Best Fitness=7.194248219282778E7 Avg Size=80.79732
Best Individual: (((1.7463315370015557 * ((X1  * 2.8640074235032795) - -4.087554039193581)) * ((X1  + cos(-3.4447940392776975)) + (sin(1.5164919675572053) + -3.7978008450654355))) * (X1  + 1.8848192754970308))
Generation=15 Avg Fitness=9.25357024937469E26 Best Fitness=7.191114074219474E7 Avg Size=91.19152
Best Individual: (((1.7463315370015557 * ((X1  * 2.8640074235032795) - -4.087554039193581)) * ((X1  + sin(-3.4447940392776975)) + (sin(-3.4673521856408174) + -4.362878565030539))) * (X1  + 1.8848192754970308))
Generation=16 Avg Fitness=9.253550026424445E26 Best Fitness=6.904542683729626E7 Avg Size=103.82478
Best Individual: (((1.7463315370015557 * ((X1  * 2.8640074235032795) - -4.087554039193581)) * ((X1  + sin(3.1316825072106376)) + -4.674913754699377)) * (X1  + 2.8640074235032795))
Generation=17 Avg Fitness=2.03594861411569E25 Best Fitness=6.263801122464253E7 Avg Size=114.7548
Best Individual: ((((-2.4205971332860488 + (-3.5121892264688293 - sin((-4.097337236315674 + 2.1540485920947905)))) * X1 ) * (sin((-2.742049524441911 * -1.7937445362796653)) + (((-3.7978008450654355 - X1 ) * (X1  + -4.097337236315674)) + 3.0135788927693667))) + (2.582589300934681 + 4.852509721880624))
Generation=18 Avg Fitness=2.5882188581816473E31 Best Fitness=6.096998189512325E7 Avg Size=125.17906
Best Individual: ((((-2.4205971332860488 + (-3.5121892264688293 - sin((-4.097337236315674 + 2.1540485920947905)))) * X1 ) * (sin((-2.742049524441911 * -1.7937445362796653)) + (((-3.7978008450654355 - X1 ) * (X1  + -4.238142240827801)) + 3.0135788927693667))) + (2.582589300934681 + 4.852509721880624))
Generation=19 Avg Fitness=9.467599189835191E29 Best Fitness=4.922545206888526E7 Avg Size=137.91928
Best Individual: ((((-2.4205971332860488 + (-3.5121892264688293 - sin((-4.097337236315674 + 2.1540485920947905)))) * X1 ) * (sin((-2.742049524441911 * -1.7937445362796653)) + (((-3.7978008450654355 - X1 ) * (X1  + -4.097337236315674)) + (-3.628995066060953 / -4.3488114715987045)))) + (((((-3.3902620606230363 + (-2.4205971332860488 + (-2.676765180988511 + ((((X1  + (((-0.05219908078320579 * cos(cos(sin(-4.903110449268857)))) + -0.2507555257544425) / (((X1  - -3.628995066060953) * (-2.3493750976589958 - ((2.1540485920947905 / -3.4673521856408174) + -1.40680334882728))) / cos(sin(-4.1131591868889785))))) * 0.347063701199648) - ((((sin(2.1365395289688145) + 1.5164919675572053) * (X1  * (-2.3493750976589958 + (-4.210862940826717 + (((4.852509721880624 * (-4.985975266499112 * 3.6276738663837698)) + 3.0271801245201253) - -4.903110449268857))))) + (X1  / (2.7876846497707 + -2.676765180988511))) * (cos(2.7876846497707) + 2.0940724134421016))) * -2.0462907641423076)))) / -3.2890849853522175) / sin((-3.137992571592111 - -0.6053593163907056))) - X1 ) + -0.6053593163907056))
PROBLEM *NOT* SOLVED
Time:32.6834635sek==0.5447243916666668min
