-- TINY GP (Java version) --
SEED=-1
MAX_LEN=10000
POPSIZE=100000
DEPTH=5
CROSSOVER_PROB=0.9
PMUT_PER_NODE=0.05
MIN_RANDOM=-5.0
MAX_RANDOM=5.0
GENERATIONS=20
TSIZE=2
----------------------------------
Generation=0 Avg Fitness=34227.71231665884 Best Fitness=53.91818704641765 Avg Size=10.95552
Best Individual: sin((X1  - -0.7207090561380376))
Generation=1 Avg Fitness=1316.5390958760552 Best Fitness=40.90634096816012 Avg Size=11.78302
Best Individual: (sin(cos((cos(-0.09398752065453042) - X1 ))) * 1.486142368264181)
Generation=2 Avg Fitness=552.9919749686948 Best Fitness=37.927774685006156 Avg Size=13.62626
Best Individual: (sin((X1  + 0.6413272648220811)) * 1.615475782504574)
Generation=3 Avg Fitness=591.2120628832389 Best Fitness=37.927774685006156 Avg Size=16.24336
Best Individual: (sin((X1  + 0.6413272648220811)) * 1.615475782504574)
Generation=4 Avg Fitness=2492.4474451624783 Best Fitness=2.890958813703856E-4 Avg Size=18.76308
Best Individual: (sin(X1 ) + cos(X1 ))
PROBLEM SOLVED
Time:3.9101717sek==0.06516952833333332min
