-- TINY GP (Java version) --
SEED=-1
MAX_LEN=10000
POPSIZE=100000
DEPTH=5
CROSSOVER_PROB=0.9
PMUT_PER_NODE=0.05
MIN_RANDOM=-5.0
MAX_RANDOM=5.0
GENERATIONS=20
TSIZE=2
----------------------------------
Generation=0 Avg Fitness=367.3602817445206 Best Fitness=9.275859245745517 Avg Size=11.02958
Best Individual: ((-3.853221626856885 / -4.1987027297910124) * (cos(-1.248717930745621) + X1 ))
Generation=1 Avg Fitness=126.80178597313704 Best Fitness=8.828703222968592 Avg Size=11.55326
Best Individual: ((sin(0.2567023862562152) + X1 ) * sin(1.1041241196773068))
Generation=2 Avg Fitness=86.13397992662452 Best Fitness=6.962258212987848 Avg Size=12.67438
Best Individual: ((cos((2.190046550499657 - -0.012698074244203106)) + (X1  / 1.4647085434097828)) + 1.4026688091377224)
Generation=3 Avg Fitness=79.61455019766377 Best Fitness=6.369502652684515 Avg Size=14.92328
Best Individual: (cos(-0.582114823152553) * (-0.42105730355359494 * ((X1  * -2.19923271634645) - 1.4428660139469436)))
Generation=4 Avg Fitness=71.76822580719836 Best Fitness=5.521638785985104 Avg Size=17.99656
Best Individual: (X1  / (-0.42105730355359494 * ((1.9531079289747542 + X1 ) / (1.3667302027239465 + -3.1325383312473942))))
Generation=5 Avg Fitness=77.28437723639335 Best Fitness=5.4679241102621585 Avg Size=20.9536
Best Individual: (X1  - (sin((-2.107220308757758 + X1 )) / (2.567699029703715 / 1.0896668642738483)))
Generation=6 Avg Fitness=52.192727066827864 Best Fitness=4.630795991587745 Avg Size=24.11174
Best Individual: (X1  - (cos((cos((0.17329859195382014 - -1.0859725021580924)) + (sin((-2.1512566847571755 / 1.4631129690217817)) + X1 ))) * (cos(0.17329859195382014) - 1.4647085434097828)))
Generation=7 Avg Fitness=45.368437327453556 Best Fitness=4.192191218381124 Avg Size=28.01414
Best Individual: (X1  + (cos((4.924978258098758 / ((-4.51211824982532 - -0.582114823152553) + (sin(((2.373585345521585 * -2.7419808045858964) * 0.08426562714108687)) - (cos((4.497765757543675 / 0.1019165703766669)) - X1 ))))) / (2.567699029703715 - 1.158498091081407)))
Generation=8 Avg Fitness=37.97645593599961 Best Fitness=4.192191218381124 Avg Size=32.82706
Best Individual: (X1  + (cos((4.924978258098758 / ((-4.51211824982532 - -0.582114823152553) + (sin(((2.373585345521585 * -2.7419808045858964) * 0.08426562714108687)) - (cos((4.497765757543675 / 0.1019165703766669)) - X1 ))))) / (2.567699029703715 - 1.158498091081407)))
Generation=9 Avg Fitness=41.1451113072662 Best Fitness=2.3681473869010556 Avg Size=37.8537
Best Individual: (X1  + ((-2.107220308757758 + (X1  + cos(4.391465558814453))) / ((-1.248717930745621 * (3.8763283256687693 + (((cos(-4.9535222879718805) * cos(-2.6974914055212307)) + 1.7823418804873512) / ((sin(0.2567023862562152) + X1 ) * sin(1.1041241196773068))))) - -2.9696224246106717)))
Generation=10 Avg Fitness=39.87040054875471 Best Fitness=2.3681473869010556 Avg Size=43.20236
Best Individual: (X1  + ((-2.107220308757758 + (X1  + cos(4.391465558814453))) / ((-1.248717930745621 * (3.8763283256687693 + (((cos(-4.9535222879718805) * cos(-2.6974914055212307)) + 1.7823418804873512) / ((sin(0.2567023862562152) + X1 ) * sin(1.1041241196773068))))) - -2.9696224246106717)))
Generation=11 Avg Fitness=31.211848852653745 Best Fitness=2.3681473869010556 Avg Size=50.5908
Best Individual: (X1  + ((-2.107220308757758 + (X1  + cos(4.391465558814453))) / ((-1.248717930745621 * (3.8763283256687693 + (((cos(-4.9535222879718805) * cos(-2.6974914055212307)) + 1.7823418804873512) / ((sin(0.2567023862562152) + X1 ) * sin(1.1041241196773068))))) - -2.9696224246106717)))
Generation=12 Avg Fitness=162.85717333070562 Best Fitness=2.3681473869010556 Avg Size=58.90836
Best Individual: (X1  + ((-2.107220308757758 + (X1  + cos(4.391465558814453))) / ((-1.248717930745621 * (3.8763283256687693 + (((cos(-4.9535222879718805) * cos(-2.6974914055212307)) + 1.7823418804873512) / ((sin(0.2567023862562152) + X1 ) * sin(1.1041241196773068))))) - -2.9696224246106717)))
Generation=13 Avg Fitness=22.001271019263367 Best Fitness=2.3681473869010556 Avg Size=66.352
Best Individual: (X1  + ((-2.107220308757758 + (X1  + cos(4.391465558814453))) / ((-1.248717930745621 * (3.8763283256687693 + (((cos(-4.9535222879718805) * cos(-2.6974914055212307)) + 1.7823418804873512) / ((sin(0.2567023862562152) + X1 ) * sin(1.1041241196773068))))) - -2.9696224246106717)))
Generation=14 Avg Fitness=18.465517158042182 Best Fitness=2.36467595694472 Avg Size=76.72372
Best Individual: (X1  + ((-2.107220308757758 + (X1  + cos(4.391465558814453))) / ((-1.248717930745621 * (3.8763283256687693 + (((cos(-4.1987027297910124) * cos(4.924978258098758)) + 1.7823418804873512) / ((sin(0.2567023862562152) + X1 ) * sin(1.1041241196773068))))) - -2.9696224246106717)))
Generation=15 Avg Fitness=16.459075513639974 Best Fitness=1.9618057649570602 Avg Size=87.50846
Best Individual: (X1  + ((-2.107220308757758 + (X1  + cos(4.391465558814453))) / ((-1.248717930745621 * (3.8763283256687693 + (((cos(-4.9535222879718805) * cos(-2.6974914055212307)) + 1.7823418804873512) / ((sin(0.12579474083303044) + X1 ) * sin(1.1041241196773068))))) - -2.9696224246106717)))
Generation=16 Avg Fitness=23.138340533595077 Best Fitness=1.6522843061745849 Avg Size=94.22836
Best Individual: (X1  + ((-2.107220308757758 + (X1  + cos(4.391465558814453))) / ((-1.248717930745621 * (3.8763283256687693 + (((cos(-4.9535222879718805) * cos(-2.6974914055212307)) + 1.7823418804873512) / ((sin(-3.1396783554492567) + X1 ) * sin(1.1041241196773068))))) - -2.9696224246106717)))
Generation=17 Avg Fitness=22.294909441941762 Best Fitness=1.413779417887434 Avg Size=103.33662
Best Individual: (X1  + ((-2.107220308757758 + (X1  + cos(4.391465558814453))) / ((-1.248717930745621 * (3.8763283256687693 + (((cos(-4.9535222879718805) * cos(-2.6974914055212307)) + 1.7823418804873512) / ((sin(0.006791027554521989) + X1 ) / sin(1.1041241196773068))))) - -2.9696224246106717)))
Generation=18 Avg Fitness=17.56302869567495 Best Fitness=1.0946142342492737 Avg Size=122.97486
Best Individual: (X1  + ((-2.107220308757758 + (X1  + cos(4.391465558814453))) / ((-1.248717930745621 * (3.8763283256687693 + (((cos(-4.9535222879718805) * cos(-2.6974914055212307)) + 1.1041241196773068) / ((sin(-3.1396783554492567) + X1 ) * cos(cos((cos(1.1041241196773068) * -0.49764206038718317))))))) - -3.1153945622301826)))
Generation=19 Avg Fitness=17.483608251694708 Best Fitness=0.9599180141319983 Avg Size=146.18234
Best Individual: (X1  + ((-2.107220308757758 + (X1  + cos(4.391465558814453))) / ((-1.248717930745621 * (0.12579474083303044 + (((cos(-4.9535222879718805) * cos(-2.6974914055212307)) + 1.7823418804873512) / ((sin((0.006791027554521989 * -1.0112318822166575)) + X1 ) * sin(1.1041241196773068))))) - 1.4647085434097828)))
PROBLEM *NOT* SOLVED
Time:6.6619463sek==0.11103243833333334min
