-- TINY GP (Java version) --
SEED=-1
MAX_LEN=10000
POPSIZE=100000
DEPTH=5
CROSSOVER_PROB=0.9
PMUT_PER_NODE=0.05
MIN_RANDOM=-5.0
MAX_RANDOM=5.0
GENERATIONS=50
TSIZE=2
----------------------------------
Generation=0 Avg Fitness=1296631.5634852105 Best Fitness=281275.6802229428 Avg Size=10.9694
Best Individual: (X2  * (((2.533939403718726 / 0.5070205863477906) + -4.188726208710749) - (X1  * -4.354012005484776)))
Generation=1 Avg Fitness=1295599.2769000053 Best Fitness=206077.37683065044 Avg Size=11.38724
Best Individual: ((-2.3598072067144757 - X2 ) * (-2.308156060951223 - ((-4.951587867253235 + X1 ) / (cos(1.255172672279751) * 0.8426731984169837))))
Generation=2 Avg Fitness=1297366.9421842108 Best Fitness=188866.78069937363 Avg Size=12.91344
Best Individual: (-2.259246583731019 * (((((-4.118806911487935 * X2 ) / 2.525652539547469) - ((4.887394676776088 + 4.796000911856119) + 2.262625316079374)) * X1 ) + (4.796000911856119 - sin(-0.1404404311331362))))
Generation=3 Avg Fitness=1291920.542131152 Best Fitness=165549.29198331514 Avg Size=15.46924
Best Individual: (-2.259246583731019 * (((((-4.118806911487935 * X2 ) / 2.525652539547469) - ((4.887394676776088 + 4.796000911856119) + 2.262625316079374)) * X1 ) + (3.7105486564517616 * (X2  - ((-3.282006948065054 * -0.1404404311331362) + sin((-3.216775476297528 - 0.5070205863477906)))))))
Generation=4 Avg Fitness=1517448.988156845 Best Fitness=165511.64366150743 Avg Size=19.03408
Best Individual: (-2.259246583731019 * (((((-4.118806911487935 * X2 ) / 2.525652539547469) - ((4.887394676776088 + 4.796000911856119) + 2.262625316079374)) * X1 ) + (3.7105486564517616 * (X2  - ((-3.282006948065054 * -0.1404404311331362) + sin((-1.4202469670403675 - 0.5070205863477906)))))))
Generation=5 Avg Fitness=4003766.749674963 Best Fitness=57668.48833562286 Avg Size=23.07732
Best Individual: (((X1  - (((X2  * cos(2.5678985473186984)) + 2.5678985473186984) * 3.781894328239053)) - 2.17538117261224) * X1 )
Generation=6 Avg Fitness=5908940.8237724295 Best Fitness=28109.559606099894 Avg Size=26.8255
Best Individual: (X1  * (X2  + (X1  + (((1.257203085824723 * (0.5070205863477906 - -4.118806911487935)) + (((X2  * 4.023285683804909) + 3.781894328239053) + (cos(-2.8972545840069532) + 2.2558465969291))) * (2.5240183844147595 / (1.088783236514125 / (0.5070205863477906 - 0.3105124708718563)))))))
Generation=7 Avg Fitness=7.331557775362366E7 Best Fitness=28109.559606099894 Avg Size=30.64742
Best Individual: (X1  * (X2  + (X1  + (((1.257203085824723 * (0.5070205863477906 - -4.118806911487935)) + (((X2  * 4.023285683804909) + 3.781894328239053) + (cos(-2.8972545840069532) + 2.2558465969291))) * (2.5240183844147595 / (1.088783236514125 / (0.5070205863477906 - 0.3105124708718563)))))))
Generation=8 Avg Fitness=5.283731205401385E9 Best Fitness=20536.190547406462 Avg Size=35.01942
Best Individual: (((2.927091898947566 * X2 ) * X1 ) + (X1  * X1 ))
Generation=9 Avg Fitness=1.344864352119334E8 Best Fitness=20536.190547406462 Avg Size=40.00498
Best Individual: (((2.927091898947566 * X2 ) * X1 ) + (X1  * X1 ))
Generation=10 Avg Fitness=9.655280682360203E8 Best Fitness=20536.190547406462 Avg Size=45.6668
Best Individual: (((2.927091898947566 * X2 ) * X1 ) + (X1  * X1 ))
Generation=11 Avg Fitness=1.6853759133116493E8 Best Fitness=6497.03229760456 Avg Size=53.22412
Best Individual: (((X1  + sin(1.257203085824723)) + -2.8972545840069532) * ((X1  + ((4.023285683804909 + (-3.216775476297528 * ((cos(-0.5065956030135634) / 2.262625316079374) - (X2  / 1.088783236514125)))) - cos(sin(cos(-0.7651697174781225))))) + cos(-0.7651697174781225)))
Generation=12 Avg Fitness=1.4895972864490068E9 Best Fitness=6497.03229760456 Avg Size=60.87724
Best Individual: (((X1  + sin(1.257203085824723)) + -2.8972545840069532) * ((X1  + ((4.023285683804909 + (-3.216775476297528 * ((cos(-0.5065956030135634) / 2.262625316079374) - (X2  / 1.088783236514125)))) - cos(sin(cos(-0.7651697174781225))))) + cos(-0.7651697174781225)))
Generation=13 Avg Fitness=5.315921017147258E12 Best Fitness=6497.03229760456 Avg Size=67.34368
Best Individual: (((X1  + sin(1.257203085824723)) + -2.8972545840069532) * ((X1  + ((4.023285683804909 + (-3.216775476297528 * ((cos(-0.5065956030135634) / 2.262625316079374) - (X2  / 1.088783236514125)))) - cos(sin(cos(-0.7651697174781225))))) + cos(-0.7651697174781225)))
Generation=14 Avg Fitness=9.359414077002966E10 Best Fitness=6104.714559320062 Avg Size=73.55026
Best Individual: (((X1  + sin(1.257203085824723)) + -2.8972545840069532) * ((X1  + ((4.023285683804909 + (-3.216775476297528 * ((cos(-0.5065956030135634) / 4.796000911856119) - (X2  / 1.088783236514125)))) - cos(sin(cos(-0.7651697174781225))))) + cos(-0.7651697174781225)))
Generation=15 Avg Fitness=1.9926150918357935E11 Best Fitness=2787.469278989176 Avg Size=79.72604
Best Individual: (((X1  + cos(1.257203085824723)) + -2.8972545840069532) * ((X1  + ((4.023285683804909 + (-3.282006948065054 * ((cos(-0.5065956030135634) / 2.262625316079374) - (X2  / 1.088783236514125)))) - cos(sin(cos(-0.7651697174781225))))) + cos(-0.7651697174781225)))
Generation=16 Avg Fitness=4.301110018601974E8 Best Fitness=2787.469278989176 Avg Size=87.80002
Best Individual: (((X1  + cos(1.257203085824723)) + -2.8972545840069532) * ((X1  + ((4.023285683804909 + (-3.282006948065054 * ((cos(-0.5065956030135634) / 2.262625316079374) - (X2  / 1.088783236514125)))) - cos(sin(cos(-0.7651697174781225))))) + cos(-0.7651697174781225)))
Generation=17 Avg Fitness=5.2460499767133963E8 Best Fitness=2787.469278989176 Avg Size=101.43736
Best Individual: (((X1  + cos(1.257203085824723)) + -2.8972545840069532) * ((X1  + ((4.023285683804909 + (-3.282006948065054 * ((cos(-0.5065956030135634) / 2.262625316079374) - (X2  / 1.088783236514125)))) - cos(sin(cos(-0.7651697174781225))))) + cos(-0.7651697174781225)))
Generation=18 Avg Fitness=1.9482775072905988E8 Best Fitness=2787.469278989176 Avg Size=124.7043
Best Individual: (((X1  + cos(1.257203085824723)) + -2.8972545840069532) * ((X1  + ((4.023285683804909 + (-3.282006948065054 * ((cos(-0.5065956030135634) / 2.262625316079374) - (X2  / 1.088783236514125)))) - cos(sin(cos(-0.7651697174781225))))) + cos(-0.7651697174781225)))
Generation=19 Avg Fitness=1.34751176992169E10 Best Fitness=2787.469278989176 Avg Size=155.62578
Best Individual: (((X1  + cos(1.257203085824723)) + -2.8972545840069532) * ((X1  + ((4.023285683804909 + (-3.282006948065054 * ((cos(-0.5065956030135634) / 2.262625316079374) - (X2  / 1.088783236514125)))) - cos(sin(cos(-0.7651697174781225))))) + cos(-0.7651697174781225)))
Generation=20 Avg Fitness=1.7630608379710996E9 Best Fitness=2787.469278989176 Avg Size=173.80124
Best Individual: (((X1  + cos(1.257203085824723)) + -2.8972545840069532) * ((X1  + ((4.023285683804909 + (-3.282006948065054 * ((cos(-0.5065956030135634) / 2.262625316079374) - (X2  / 1.088783236514125)))) - cos(sin(cos(-0.7651697174781225))))) + cos(-0.7651697174781225)))
Generation=21 Avg Fitness=7.064449409033061E10 Best Fitness=2752.3790180135516 Avg Size=185.38512
Best Individual: (((X1  + cos(1.257203085824723)) + -2.8972545840069532) * ((X1  + ((4.023285683804909 + (-3.282006948065054 * ((cos(-0.5065956030135634) / 2.262625316079374) - (X2  / 1.088783236514125)))) - cos(-3.837785053174744))) + sin(((((0.5654578282396798 / 2.525652539547469) + ((-0.3555194974734359 - (((-4.118806911487935 * (sin(0.6561678862210893) - cos(-0.5065956030135634))) - 2.262625316079374) / -2.7135669238583504)) - -0.6575472180495527)) * (3.165763946294039 * (-0.1404404311331362 + ((4.023285683804909 * (1.255172672279751 + -4.504536529593067)) * (1.9503732166788268 / 1.7402697125150954))))) * -3.9602881703089263))))
Generation=22 Avg Fitness=4.191545837787166E8 Best Fitness=2745.169997079279 Avg Size=207.97368
Best Individual: (((X1  + cos(1.257203085824723)) + -2.8972545840069532) * ((X1  + ((4.023285683804909 + (-3.282006948065054 * ((cos(-0.5065956030135634) / 2.262625316079374) - (X2  / 1.088783236514125)))) - cos(-3.837785053174744))) + sin(((((0.5654578282396798 / 2.525652539547469) + ((-0.3555194974734359 - (((-4.118806911487935 * (sin(0.6561678862210893) - cos(-0.5065956030135634))) + 2.262625316079374) / -2.7135669238583504)) - -0.6575472180495527)) * (3.165763946294039 * (-0.1404404311331362 + ((4.023285683804909 * (0.7914598659084904 + 3.8011525162153017)) * (1.9503732166788268 / 1.7402697125150954))))) * -3.9602881703089263))))
Generation=23 Avg Fitness=1.113094413762147E9 Best Fitness=2745.169997079279 Avg Size=240.90648
Best Individual: (((X1  + cos(1.257203085824723)) + -2.8972545840069532) * ((X1  + ((4.023285683804909 + (-3.282006948065054 * ((cos(-0.5065956030135634) / 2.262625316079374) - (X2  / 1.088783236514125)))) - cos(-3.837785053174744))) + sin(((((0.5654578282396798 / 2.525652539547469) + ((-0.3555194974734359 - (((-4.118806911487935 * (sin(0.6561678862210893) - cos(-0.5065956030135634))) + 2.262625316079374) / -2.7135669238583504)) - -0.6575472180495527)) * (3.165763946294039 * (-0.1404404311331362 + ((4.023285683804909 * (0.7914598659084904 + 3.8011525162153017)) * (1.9503732166788268 / 1.7402697125150954))))) * -3.9602881703089263))))
Generation=24 Avg Fitness=2.48461116250401E7 Best Fitness=2731.8399408919513 Avg Size=276.98858
Best Individual: (((X1  + cos(1.257203085824723)) + -2.8972545840069532) * ((X1  + ((4.023285683804909 + (-3.282006948065054 * ((cos(-0.5065956030135634) / 2.262625316079374) - (X2  / 1.088783236514125)))) - 4.1285963885946355)) + 4.023285683804909))
Generation=25 Avg Fitness=2.700867351346065E8 Best Fitness=2134.9354457618097 Avg Size=307.26312
Best Individual: (((X1  + sin(2.262625316079374)) + -2.8972545840069532) * ((X1  + ((4.023285683804909 + (-3.216775476297528 * ((cos((X2  / ((((-4.301442477367253 * 1.5826922039003932) * 2.6003729930262134) * 2.08277464108472) + 2.927091898947566))) / 2.262625316079374) - (X2  / 1.088783236514125)))) - cos(sin(cos(-0.7651697174781225))))) + cos(-0.7651697174781225)))
Generation=26 Avg Fitness=1.498398535679751E8 Best Fitness=2134.9354457618097 Avg Size=322.0739
Best Individual: (((X1  + sin(2.262625316079374)) + -2.8972545840069532) * ((X1  + ((4.023285683804909 + (-3.216775476297528 * ((cos((X2  / ((((-4.301442477367253 * 1.5826922039003932) * 2.6003729930262134) * 2.08277464108472) + 2.927091898947566))) / 2.262625316079374) - (X2  / 1.088783236514125)))) - cos(sin(cos(-0.7651697174781225))))) + cos(-0.7651697174781225)))
Generation=27 Avg Fitness=9605841.110144475 Best Fitness=2105.915905551781 Avg Size=332.95082
Best Individual: (((X1  + sin(2.262625316079374)) + -2.8972545840069532) * ((X1  + ((4.023285683804909 + (-3.216775476297528 * ((cos((X2  / ((((-4.301442477367253 * 1.5826922039003932) * 2.6003729930262134) * 2.08277464108472) + 2.927091898947566))) / 2.262625316079374) - (X2  / 1.088783236514125)))) - cos(sin(cos(-0.718317310760499))))) + cos(-0.7651697174781225)))
Generation=28 Avg Fitness=5.016806795432832E7 Best Fitness=1939.2893466723026 Avg Size=334.36644
Best Individual: (((X1  + sin(2.262625316079374)) + -2.8972545840069532) * ((X1  + ((4.023285683804909 + (-3.216775476297528 * ((cos((X2  / ((((-4.301442477367253 * 1.5826922039003932) * 2.6003729930262134) * 2.08277464108472) + 2.927091898947566))) / 2.262625316079374) - (X2  / 1.088783236514125)))) - cos(sin(cos(-0.7651697174781225))))) + sin(1.257203085824723)))
Generation=29 Avg Fitness=1.8245075513843381E9 Best Fitness=1903.3205398554846 Avg Size=319.59172
Best Individual: (((X1  + sin(2.262625316079374)) + -2.8972545840069532) * ((X1  + ((4.023285683804909 + (-3.216775476297528 * ((cos((X2  / ((((((2.197351230641064 / -1.952127372306828) - 2.927091898947566) * 1.5826922039003932) * 2.6003729930262134) * 2.08277464108472) + 2.927091898947566))) / 2.262625316079374) - (X2  / 1.088783236514125)))) - cos(sin(cos(-0.7651697174781225))))) + cos(-0.7651697174781225)))
Generation=30 Avg Fitness=3731027.9626408606 Best Fitness=1856.686236906089 Avg Size=324.56014
Best Individual: (((X1  + sin(2.262625316079374)) + -2.8972545840069532) * ((X1  + ((4.023285683804909 + (-3.216775476297528 * ((cos((X2  / ((((-4.301442477367253 * 1.5826922039003932) * -1.952127372306828) * 2.08277464108472) + 2.927091898947566))) / 2.262625316079374) - (X2  / 1.088783236514125)))) - cos(sin(cos(-0.7651697174781225))))) + cos(-0.7651697174781225)))
Generation=31 Avg Fitness=9982305.46367113 Best Fitness=1856.686236906089 Avg Size=360.46554
Best Individual: (((X1  + sin(2.262625316079374)) + -2.8972545840069532) * ((X1  + ((4.023285683804909 + (-3.216775476297528 * ((cos((X2  / ((((-4.301442477367253 * 1.5826922039003932) * -1.952127372306828) * 2.08277464108472) + 2.927091898947566))) / 2.262625316079374) - (X2  / 1.088783236514125)))) - cos(sin(cos(-0.7651697174781225))))) + cos(-0.7651697174781225)))
Generation=32 Avg Fitness=1489660.006965637 Best Fitness=1775.9297618450314 Avg Size=400.44722
Best Individual: (((X1  + sin(-3.9602881703089263)) + -2.8972545840069532) * ((X1  + ((4.023285683804909 + (-3.216775476297528 * ((cos((X2  / ((((-4.301442477367253 * 1.5826922039003932) * 2.6003729930262134) * 2.08277464108472) + 2.927091898947566))) / 2.262625316079374) - (X2  / 1.088783236514125)))) - cos(sin(cos(-0.7651697174781225))))) + sin(1.257203085824723)))
Generation=33 Avg Fitness=3.566097647730763E10 Best Fitness=1729.7876818521054 Avg Size=411.71228
Best Individual: (((X1  + sin(2.262625316079374)) + -2.8972545840069532) * ((X1  + ((4.023285683804909 + (-3.216775476297528 * ((cos((X2  / ((((-4.301442477367253 * 1.5826922039003932) * 2.6003729930262134) * 2.08277464108472) + 2.927091898947566))) / 2.262625316079374) - (X2  / 1.088783236514125)))) - cos(sin(((cos((X2  / ((((-4.301442477367253 * 1.5826922039003932) * 2.6003729930262134) * 2.08277464108472) + 2.927091898947566))) / 2.262625316079374) - (X2  / 1.088783236514125)))))) + cos(sin(cos(-0.7651697174781225)))))
Generation=34 Avg Fitness=1634420.1278309142 Best Fitness=1729.7876818521054 Avg Size=403.68578
Best Individual: (((X1  + sin(2.262625316079374)) + -2.8972545840069532) * ((X1  + ((4.023285683804909 + (-3.216775476297528 * ((cos((X2  / ((((-4.301442477367253 * 1.5826922039003932) * 2.6003729930262134) * 2.08277464108472) + 2.927091898947566))) / 2.262625316079374) - (X2  / 1.088783236514125)))) - cos(sin(((cos((X2  / ((((-4.301442477367253 * 1.5826922039003932) * 2.6003729930262134) * 2.08277464108472) + 2.927091898947566))) / 2.262625316079374) - (X2  / 1.088783236514125)))))) + cos(sin(cos(-0.7651697174781225)))))
Generation=35 Avg Fitness=3090054.915187848 Best Fitness=1654.648481086767 Avg Size=421.35316
Best Individual: (((X1  + sin(-3.9602881703089263)) + -2.8972545840069532) * ((X1  + ((4.023285683804909 + (-3.216775476297528 * ((cos((X2  / ((((-4.301442477367253 * 1.5826922039003932) * -1.952127372306828) * 2.08277464108472) + 2.927091898947566))) / 2.262625316079374) - (X2  / 1.088783236514125)))) - sin(sin(cos(-0.7651697174781225))))) + cos(-0.7651697174781225)))
Generation=36 Avg Fitness=298184.17804112786 Best Fitness=1654.648481086767 Avg Size=444.82624
Best Individual: (((X1  + sin(-3.9602881703089263)) + -2.8972545840069532) * ((X1  + ((4.023285683804909 + (-3.216775476297528 * ((cos((X2  / ((((-4.301442477367253 * 1.5826922039003932) * -1.952127372306828) * 2.08277464108472) + 2.927091898947566))) / 2.262625316079374) - (X2  / 1.088783236514125)))) - sin(sin(cos(-0.7651697174781225))))) + cos(-0.7651697174781225)))
Generation=37 Avg Fitness=1605511.4392258876 Best Fitness=1654.648481086767 Avg Size=460.77436
Best Individual: (((X1  + sin(-3.9602881703089263)) + -2.8972545840069532) * ((X1  + ((4.023285683804909 + (-3.216775476297528 * ((cos((X2  / ((((-4.301442477367253 * 1.5826922039003932) * -1.952127372306828) * 2.08277464108472) + 2.927091898947566))) / 2.262625316079374) - (X2  / 1.088783236514125)))) - sin(sin(cos(-0.7651697174781225))))) + cos(-0.7651697174781225)))
Generation=38 Avg Fitness=1916516.1540340977 Best Fitness=1650.4525681052755 Avg Size=481.1001
Best Individual: (((X1  + sin(2.262625316079374)) + -2.8972545840069532) * ((X1  + ((4.023285683804909 + (-3.216775476297528 * ((cos((X2  / ((((-4.301442477367253 * 1.5826922039003932) * 2.6003729930262134) * 2.08277464108472) + 2.927091898947566))) / 2.262625316079374) - (X2  / 1.088783236514125)))) - cos(sin(cos((-3.282006948065054 / ((cos(-0.5065956030135634) / (-3.216775476297528 / 2.525652539547469)) - (X2  / 4.023285683804909)))))))) + cos(sin(cos(-0.7651697174781225)))))
Generation=39 Avg Fitness=1430854.4490278796 Best Fitness=1518.6049058474987 Avg Size=497.23392
Best Individual: (((X1  + sin((((-4.301442477367253 * 1.5826922039003932) * 2.6003729930262134) * 2.08277464108472))) + -2.8972545840069532) * ((X1  + ((4.023285683804909 + (-3.216775476297528 * ((cos((X2  / ((((-4.301442477367253 * 1.5826922039003932) * 2.6003729930262134) * 2.08277464108472) + 2.927091898947566))) / 2.262625316079374) - (X2  / 1.088783236514125)))) - cos(sin(((cos((X2  / ((((-4.301442477367253 * 1.5826922039003932) * 2.6003729930262134) * 2.08277464108472) + 2.927091898947566))) / 2.262625316079374) - (X2  / 1.088783236514125)))))) + cos(sin(cos(-0.7651697174781225)))))
Generation=40 Avg Fitness=1.078672968598159E8 Best Fitness=1518.6049058474987 Avg Size=484.9537
Best Individual: (((X1  + sin((((-4.301442477367253 * 1.5826922039003932) * 2.6003729930262134) * 2.08277464108472))) + -2.8972545840069532) * ((X1  + ((4.023285683804909 + (-3.216775476297528 * ((cos((X2  / ((((-4.301442477367253 * 1.5826922039003932) * 2.6003729930262134) * 2.08277464108472) + 2.927091898947566))) / 2.262625316079374) - (X2  / 1.088783236514125)))) - cos(sin(((cos((X2  / ((((-4.301442477367253 * 1.5826922039003932) * 2.6003729930262134) * 2.08277464108472) + 2.927091898947566))) / 2.262625316079374) - (X2  / 1.088783236514125)))))) + cos(sin(cos(-0.7651697174781225)))))
Generation=41 Avg Fitness=6305331.61138678 Best Fitness=1518.6049058474987 Avg Size=479.7776
Best Individual: (((X1  + sin((((-4.301442477367253 * 1.5826922039003932) * 2.6003729930262134) * 2.08277464108472))) + -2.8972545840069532) * ((X1  + ((4.023285683804909 + (-3.216775476297528 * ((cos((X2  / ((((-4.301442477367253 * 1.5826922039003932) * 2.6003729930262134) * 2.08277464108472) + 2.927091898947566))) / 2.262625316079374) - (X2  / 1.088783236514125)))) - cos(sin(((cos((X2  / ((((-4.301442477367253 * 1.5826922039003932) * 2.6003729930262134) * 2.08277464108472) + 2.927091898947566))) / 2.262625316079374) - (X2  / 1.088783236514125)))))) + cos(sin(cos(-0.7651697174781225)))))
Generation=42 Avg Fitness=290197.60209105734 Best Fitness=1511.608889615427 Avg Size=481.50444
Best Individual: (((X1  + sin(-3.9602881703089263)) + -2.8972545840069532) * ((X1  + ((4.023285683804909 + (-3.216775476297528 * ((cos((X2  / ((((-4.301442477367253 * 1.5826922039003932) * 2.6003729930262134) * 2.08277464108472) + 2.927091898947566))) / 2.08277464108472) - (X2  / 1.088783236514125)))) - cos(sin(cos((sin(3.9875637009736966) / (1.4307065206257077 / (-3.282006948065054 * ((cos(-0.5065956030135634) / 2.262625316079374) - (X2  / 1.088783236514125)))))))))) + cos(cos(((4.1285963885946355 * 1.9503732166788268) / (-4.188726208710749 * ((-4.118806911487935 / -1.0423123002442747) / 2.525652539547469)))))))
Generation=43 Avg Fitness=7275982.69921582 Best Fitness=1511.608889615427 Avg Size=489.61804
Best Individual: (((X1  + sin(-3.9602881703089263)) + -2.8972545840069532) * ((X1  + ((4.023285683804909 + (-3.216775476297528 * ((cos((X2  / ((((-4.301442477367253 * 1.5826922039003932) * 2.6003729930262134) * 2.08277464108472) + 2.927091898947566))) / 2.08277464108472) - (X2  / 1.088783236514125)))) - cos(sin(cos((sin(3.9875637009736966) / (1.4307065206257077 / (-3.282006948065054 * ((cos(-0.5065956030135634) / 2.262625316079374) - (X2  / 1.088783236514125)))))))))) + cos(cos(((4.1285963885946355 * 1.9503732166788268) / (-4.188726208710749 * ((-4.118806911487935 / -1.0423123002442747) / 2.525652539547469)))))))
Generation=44 Avg Fitness=7669960.109623031 Best Fitness=1420.4885389209862 Avg Size=522.96908
Best Individual: (((X1  + sin(-3.9602881703089263)) + -2.8972545840069532) * ((X1  + ((4.023285683804909 + (-3.216775476297528 * ((cos((X2  / ((((-4.301442477367253 * 1.5826922039003932) * 2.6003729930262134) * 2.08277464108472) + 2.927091898947566))) / 1.9503732166788268) - (X2  / 1.088783236514125)))) - cos(sin(cos((((3.781894328239053 / (2.6296559559987323 * (X2  * 4.023285683804909))) / -2.7135669238583504) - -0.31049607003130575)))))) + sin(1.257203085824723)))
Generation=45 Avg Fitness=4363536.879236874 Best Fitness=1414.1807902510777 Avg Size=577.24706
Best Individual: (((X1  + sin(0.7914598659084904)) + -2.8972545840069532) * ((X1  + ((4.023285683804909 + (-3.216775476297528 * ((cos((X2  / ((((-4.301442477367253 * 1.5826922039003932) * 2.6003729930262134) * 2.08277464108472) + 2.927091898947566))) / 2.262625316079374) - (X2  / 1.088783236514125)))) - cos(sin(((cos((X2  / ((((-4.301442477367253 * -1.8580503388331793) * 2.6003729930262134) * 2.08277464108472) + 2.927091898947566))) / 2.262625316079374) - (X2  / 1.088783236514125)))))) + cos((cos(-0.7651697174781225) * cos(-0.7651697174781225)))))
Generation=46 Avg Fitness=394038.87808186014 Best Fitness=1378.9101276129657 Avg Size=641.59274
Best Individual: (((X1  + sin(-3.9602881703089263)) + -2.8972545840069532) * ((X1  + ((4.023285683804909 + (-3.216775476297528 * ((cos((X2  / ((((-4.301442477367253 * 1.5826922039003932) * 2.6003729930262134) * 2.08277464108472) + 2.927091898947566))) / 2.262625316079374) - (X2  / 1.088783236514125)))) - cos(sin(((cos((X2  / ((((-4.301442477367253 * 1.5826922039003932) * 2.6003729930262134) * 1.9320132747527268) + 2.927091898947566))) / 2.262625316079374) - (X2  / 1.088783236514125)))))) + cos(sin(cos((sin(((-0.5065956030135634 * X2 ) / X2 )) + (-4.214587715675011 - -0.5065956030135634)))))))
Generation=47 Avg Fitness=2732562.8181319567 Best Fitness=1301.9265082983063 Avg Size=707.07982
Best Individual: (((X1  + sin(-3.9602881703089263)) + -2.8972545840069532) * ((X1  + ((4.023285683804909 + (-3.216775476297528 * ((cos((X2  / ((((-4.301442477367253 * 1.5826922039003932) * 2.6003729930262134) * 2.08277464108472) + 2.927091898947566))) / 2.08277464108472) - (X2  / 1.088783236514125)))) - cos(sin(cos((sin(3.9875637009736966) / (1.4307065206257077 / (-3.282006948065054 * ((cos(-0.5065956030135634) / 2.262625316079374) - (X2  / 1.088783236514125)))))))))) + cos(cos(((X1  * 1.9503732166788268) / (-4.188726208710749 * ((-4.118806911487935 / -1.0423123002442747) / 2.525652539547469)))))))
Generation=48 Avg Fitness=1671252.1110089896 Best Fitness=1301.9265082983063 Avg Size=707.7231
Best Individual: (((X1  + sin(-3.9602881703089263)) + -2.8972545840069532) * ((X1  + ((4.023285683804909 + (-3.216775476297528 * ((cos((X2  / ((((-4.301442477367253 * 1.5826922039003932) * 2.6003729930262134) * 2.08277464108472) + 2.927091898947566))) / 2.08277464108472) - (X2  / 1.088783236514125)))) - cos(sin(cos((sin(3.9875637009736966) / (1.4307065206257077 / (-3.282006948065054 * ((cos(-0.5065956030135634) / 2.262625316079374) - (X2  / 1.088783236514125)))))))))) + cos(cos(((X1  * 1.9503732166788268) / (-4.188726208710749 * ((-4.118806911487935 / -1.0423123002442747) / 2.525652539547469)))))))
Generation=49 Avg Fitness=614322.1620317294 Best Fitness=1301.9265082983063 Avg Size=709.5006
Best Individual: (((X1  + sin(-3.9602881703089263)) + -2.8972545840069532) * ((X1  + ((4.023285683804909 + (-3.216775476297528 * ((cos((X2  / ((((-4.301442477367253 * 1.5826922039003932) * 2.6003729930262134) * 2.08277464108472) + 2.927091898947566))) / 2.08277464108472) - (X2  / 1.088783236514125)))) - cos(sin(cos((sin(3.9875637009736966) / (1.4307065206257077 / (-3.282006948065054 * ((cos(-0.5065956030135634) / 2.262625316079374) - (X2  / 1.088783236514125)))))))))) + cos(cos(((X1  * 1.9503732166788268) / (-4.188726208710749 * ((-4.118806911487935 / -1.0423123002442747) / 2.525652539547469)))))))
PROBLEM *NOT* SOLVED
Time:100.8077073sek==1.680128455min
