-- TINY GP (Java version) --
SEED=-1
MAX_LEN=10000
POPSIZE=100000
DEPTH=5
CROSSOVER_PROB=0.9
PMUT_PER_NODE=0.05
MIN_RANDOM=-5.0
MAX_RANDOM=5.0
GENERATIONS=50
TSIZE=2
----------------------------------
Generation=0 Avg Fitness=3250.8292145714645 Best Fitness=645.5228110205729 Avg Size=10.99836
Best Individual: (((1.3006887579591115 * -1.556706102460732) * X2 ) * (cos((-1.594538846982779 * cos(4.735597402276394))) + 2.2183791514141484))
Generation=1 Avg Fitness=1986.8032864010406 Best Fitness=509.4000284890157 Avg Size=11.77038
Best Individual: ((X2  / ((-1.708408800748964 + (0.5621607177018095 * 4.106558201983695)) / -3.1249331964373006)) - -1.5769764984910095)
Generation=2 Avg Fitness=1781.6179610329345 Best Fitness=509.4000284890157 Avg Size=13.5033
Best Individual: ((X2  / ((-1.708408800748964 + (0.5621607177018095 * 4.106558201983695)) / -3.1249331964373006)) - -1.5769764984910095)
Generation=3 Avg Fitness=1731.0257730404326 Best Fitness=444.606815272474 Avg Size=16.37664
Best Individual: ((1.8069700393201193 + 2.428788738603674) - ((1.8252466370556464 * (X2  + sin((4.432735459329912 + -1.8707516493289456)))) * 3.1334253123349747))
Generation=4 Avg Fitness=1698.9941318119695 Best Fitness=388.6246340759405 Avg Size=20.5327
Best Individual: ((((X2  * (-1.9155136323827984 - 4.580256664259535)) + sin((-0.5789249406673243 * X2 ))) + (cos((-4.110862081722088 * (-0.9458722147303602 - (1.0054762708315543 * -0.6338794147413314)))) - sin(-1.9203941505028856))) + (0.49060905496375895 * -0.5789249406673243))
Generation=5 Avg Fitness=1600.382411747504 Best Fitness=385.3004588216171 Avg Size=25.35604
Best Individual: (sin((cos(-0.5323195710835336) / 0.5882276382457619)) + ((X2  * sin(-1.3641753649485389)) / sin(3.003302211904032)))
Generation=6 Avg Fitness=1444.2143152070453 Best Fitness=381.98204302304805 Avg Size=29.92236
Best Individual: (((X2  - 0.21609762888753004) / cos(((-0.9458722147303602 / 2.2183791514141484) - (1.3006887579591115 - ((cos(-1.5769764984910095) / (sin(-3.3046980096872938) + 1.477557060456034)) * -3.3046980096872938))))) + (cos(-1.8084072459865719) / cos(-0.5789249406673243)))
Generation=7 Avg Fitness=1327.25699575341 Best Fitness=380.5510135787201 Avg Size=34.1222
Best Individual: ((((X2  * (-1.9155136323827984 - 4.580256664259535)) + (sin(-3.3046980096872938) * (((3.0835739901548855 - 1.5425055188005512) + (4.7828759944089665 - 0.49060905496375895)) + ((sin(-3.1249331964373006) + cos((((sin((-4.6138741179021245 * -4.110862081722088)) - 2.428788738603674) / -1.8707516493289456) * 2.428788738603674))) + (-2.7872768143783864 * sin(X2 )))))) + -0.38247231504446955) + sin(((-0.8038632219120796 * (2.3093872963978237 + -0.32450131020081674)) / (3.976105531438744 * (-3.3046980096872938 - -3.4074158844566913)))))
Generation=8 Avg Fitness=1114.7250299480195 Best Fitness=380.36426704906773 Avg Size=39.83274
Best Individual: (((X2  - 0.21609762888753004) / cos(((-0.9458722147303602 / 2.2183791514141484) - (1.3006887579591115 - ((cos(-1.5769764984910095) / (sin(-3.3046980096872938) + 1.477557060456034)) * -3.3046980096872938))))) + (cos(-1.8084072459865719) / cos(cos(-0.2954388069404654))))
Generation=9 Avg Fitness=1020.8111670002643 Best Fitness=379.9743850083993 Avg Size=46.75486
Best Individual: ((((X2  * (-1.9155136323827984 - 4.580256664259535)) + sin((-0.5789249406673243 * X2 ))) + (cos((X2  * (-0.9458722147303602 - (1.0054762708315543 * -0.6338794147413314)))) - sin(-1.9203941505028856))) + (sin(2.2183791514141484) + -1.5769764984910095))
Generation=10 Avg Fitness=927.5887402745068 Best Fitness=379.9743850083993 Avg Size=53.29106
Best Individual: ((((X2  * (-1.9155136323827984 - 4.580256664259535)) + sin((-0.5789249406673243 * X2 ))) + (cos((X2  * (-0.9458722147303602 - (1.0054762708315543 * -0.6338794147413314)))) - sin(-1.9203941505028856))) + (sin(2.2183791514141484) + -1.5769764984910095))
Generation=11 Avg Fitness=932.7736534749989 Best Fitness=379.5836975527893 Avg Size=59.9247
Best Individual: ((cos(1.5829663186836154) + 1.0054762708315543) - ((((2.306710822282904 - -2.83844100131865) * X2 ) + X2 ) + sin((cos(((X2  * -1.556706102460732) + 1.8252466370556464)) / (-1.556706102460732 * sin(-2.013552005154615))))))
Generation=12 Avg Fitness=812.2759234780784 Best Fitness=379.2958437941085 Avg Size=66.86292
Best Individual: ((((X2  * (-1.9155136323827984 - 4.580256664259535)) + sin((-0.5789249406673243 * X2 ))) + (cos(X2 ) - sin((1.3006887579591115 / -2.4810801571322374)))) + (0.49060905496375895 * -0.5789249406673243))
Generation=13 Avg Fitness=801.1634967536479 Best Fitness=332.0966728010193 Avg Size=74.99622
Best Individual: (1.8200802919912142 + (X2  / sin(((sin(((4.432735459329912 * cos(cos((cos((2.306710822282904 * (2.428788738603674 / -4.268735405839889))) + (-2.7872768143783864 + (cos(1.8252466370556464) - cos((sin(((1.8200802919912142 / -0.32450131020081674) - -3.1855008524491337)) - 0.5621607177018095)))))))) + 0.4976550882416504)) * (X1  - -1.708408800748964)) / -2.5458899973772287))))
Generation=14 Avg Fitness=947.135343215272 Best Fitness=332.0966728010193 Avg Size=82.92782
Best Individual: (1.8200802919912142 + (X2  / sin(((sin(((4.432735459329912 * cos(cos((cos((2.306710822282904 * (2.428788738603674 / -4.268735405839889))) + (-2.7872768143783864 + (cos(1.8252466370556464) - cos((sin(((1.8200802919912142 / -0.32450131020081674) - -3.1855008524491337)) - 0.5621607177018095)))))))) + 0.4976550882416504)) * (X1  - -1.708408800748964)) / -2.5458899973772287))))
Generation=15 Avg Fitness=932.1953655346109 Best Fitness=332.0966728010193 Avg Size=88.14882
Best Individual: (1.8200802919912142 + (X2  / sin(((sin(((4.432735459329912 * cos(cos((cos((2.306710822282904 * (2.428788738603674 / -4.268735405839889))) + (-2.7872768143783864 + (cos(1.8252466370556464) - cos((sin(((1.8200802919912142 / -0.32450131020081674) - -3.1855008524491337)) - 0.5621607177018095)))))))) + 0.4976550882416504)) * (X1  - -1.708408800748964)) / -2.5458899973772287))))
Generation=16 Avg Fitness=679.9778162125847 Best Fitness=318.7273889992106 Avg Size=93.60888
Best Individual: (cos(sin(3.003302211904032)) + (sin(X2 ) * ((sin(2.4489397826269252) - (sin(-0.38247231504446955) + (2.4489397826269252 * 3.4198118641049398))) + sin((X1  - ((0.21609762888753004 / -2.543324831932706) / sin((-2.7872768143783864 - ((-2.225131774542044 + X1 ) * cos(((cos((X2  + -0.8288790012041432)) / 2.4489397826269252) - (3.0835739901548855 + 3.2535030471158706))))))))))))
Generation=17 Avg Fitness=713.6791660126235 Best Fitness=287.1459481591217 Avg Size=101.61506
Best Individual: ((((X2  * (-1.9155136323827984 - 4.580256664259535)) + sin((X1  * X2 ))) + (cos((-4.110862081722088 * (-0.9458722147303602 - (1.0054762708315543 * -0.6338794147413314)))) - sin(-1.9203941505028856))) + (4.637108743728827 * (cos(1.477557060456034) * -0.32450131020081674)))
Generation=18 Avg Fitness=672.3248685224343 Best Fitness=212.29522734136805 Avg Size=115.29074
Best Individual: (cos(sin(3.003302211904032)) + ((X2  * ((sin(2.4489397826269252) - (sin(-1.498049699301652) + (2.4489397826269252 * 2.2367260673112597))) + ((X1  - ((sin(((-2.83228739234623 + 1.63529301837929) / ((-1.594538846982779 / 3.3900595737698946) * 4.584789792073796))) * -1.556706102460732) / 4.580256664259535)) + sin((1.3006887579591115 - ((-2.225131774542044 + X1 ) * cos(((cos((X2  + -0.8288790012041432)) / 1.477557060456034) - (3.0835739901548855 + 3.2535030471158706))))))))) * 1.991067611317269))
Generation=19 Avg Fitness=705.7620681139505 Best Fitness=181.01467369264248 Avg Size=133.42654
Best Individual: ((sin(sin((2.2367260673112597 + 1.991067611317269))) - ((sin((4.831035486167748 - -1.498049699301652)) - 4.106558201983695) * X2 )) * (-1.8084072459865719 - ((cos(cos(2.1194606849497886)) / -1.498049699301652) * X1 )))
Generation=20 Avg Fitness=708.3316906205753 Best Fitness=178.26220250058688 Avg Size=147.69446
Best Individual: ((sin(sin((2.2367260673112597 + 1.991067611317269))) - ((sin((4.831035486167748 - -1.498049699301652)) - 4.106558201983695) * X2 )) * (-1.8084072459865719 - ((cos(sin((0.5922135184022981 / -1.5383248076402714))) / -1.3441473701092677) * X1 )))
Generation=21 Avg Fitness=603.8600337194554 Best Fitness=175.10384422213733 Avg Size=161.9976
Best Individual: ((sin(sin((-4.110862081722088 + 1.991067611317269))) - ((sin((4.831035486167748 - -1.498049699301652)) - 4.106558201983695) * X2 )) * (-1.8084072459865719 - ((cos(cos(2.1194606849497886)) / -1.498049699301652) * X1 )))
Generation=22 Avg Fitness=512.1279342031975 Best Fitness=162.41440260169168 Avg Size=173.91912
Best Individual: ((sin(sin((3.52382943074187 + 1.991067611317269))) - ((sin((4.831035486167748 - -1.498049699301652)) - 4.106558201983695) * X2 )) * (-1.8084072459865719 - ((cos(cos(2.1194606849497886)) / -1.498049699301652) * X1 )))
Generation=23 Avg Fitness=470.65866668591536 Best Fitness=162.41440260169168 Avg Size=181.81244
Best Individual: ((sin(sin((3.52382943074187 + 1.991067611317269))) - ((sin((4.831035486167748 - -1.498049699301652)) - 4.106558201983695) * X2 )) * (-1.8084072459865719 - ((cos(cos(2.1194606849497886)) / -1.498049699301652) * X1 )))
Generation=24 Avg Fitness=469.6676054315251 Best Fitness=156.37928551044166 Avg Size=192.85674
Best Individual: ((sin(sin((2.2367260673112597 + 1.991067611317269))) - ((sin(-0.38247231504446955) - 4.106558201983695) * X2 )) * (-1.5383248076402714 - ((cos(cos(2.1194606849497886)) / -1.498049699301652) * X1 )))
Generation=25 Avg Fitness=502.8191276414271 Best Fitness=156.37928551044166 Avg Size=196.30484
Best Individual: ((sin(sin((2.2367260673112597 + 1.991067611317269))) - ((sin(-0.38247231504446955) - 4.106558201983695) * X2 )) * (-1.5383248076402714 - ((cos(cos(2.1194606849497886)) / -1.498049699301652) * X1 )))
Generation=26 Avg Fitness=544.9020760902289 Best Fitness=152.31932875882657 Avg Size=183.70734
Best Individual: ((sin(sin(sin((2.2367260673112597 + 1.991067611317269)))) - ((sin(3.003302211904032) - 4.106558201983695) * X2 )) * (-1.8084072459865719 - ((cos(sin((0.5922135184022981 / -1.5383248076402714))) / -1.3441473701092677) * X1 )))
Generation=27 Avg Fitness=585.3533178841626 Best Fitness=148.94915718816935 Avg Size=167.23172
Best Individual: ((sin(sin((1.991067611317269 + 1.991067611317269))) - ((sin((4.831035486167748 - -1.498049699301652)) - 3.976105531438744) * X2 )) * (-1.8084072459865719 - ((cos(sin((0.5922135184022981 / -1.5383248076402714))) / -1.3441473701092677) * X1 )))
Generation=28 Avg Fitness=652.7423316621725 Best Fitness=147.9321038606906 Avg Size=162.89424
Best Individual: ((sin(sin((3.52382943074187 + 1.991067611317269))) - ((sin((4.831035486167748 - -1.498049699301652)) - 3.976105531438744) * X2 )) * (-1.8084072459865719 - ((cos(sin((0.5922135184022981 / -1.5383248076402714))) / -1.3441473701092677) * X1 )))
Generation=29 Avg Fitness=654.7055236857287 Best Fitness=147.9321038606906 Avg Size=165.46498
Best Individual: ((sin(sin((3.52382943074187 + 1.991067611317269))) - ((sin((4.831035486167748 - -1.498049699301652)) - 3.976105531438744) * X2 )) * (-1.8084072459865719 - ((cos(sin((0.5922135184022981 / -1.5383248076402714))) / -1.3441473701092677) * X1 )))
Generation=30 Avg Fitness=629.0878994777877 Best Fitness=147.9321038606906 Avg Size=170.88024
Best Individual: ((sin(sin((3.52382943074187 + 1.991067611317269))) - ((sin((4.831035486167748 - -1.498049699301652)) - 3.976105531438744) * X2 )) * (-1.8084072459865719 - ((cos(sin((0.5922135184022981 / -1.5383248076402714))) / -1.3441473701092677) * X1 )))
Generation=31 Avg Fitness=577.4468570886014 Best Fitness=147.9321038606906 Avg Size=176.15886
Best Individual: ((sin(sin((3.52382943074187 + 1.991067611317269))) - ((sin((4.831035486167748 - -1.498049699301652)) - 3.976105531438744) * X2 )) * (-1.8084072459865719 - ((cos(sin((0.5922135184022981 / -1.5383248076402714))) / -1.3441473701092677) * X1 )))
Generation=32 Avg Fitness=566.6947007673825 Best Fitness=146.5693178594507 Avg Size=187.6315
Best Individual: ((sin(sin((2.2367260673112597 + 1.991067611317269))) - ((sin(-0.38247231504446955) - 4.106558201983695) * X2 )) * (-1.5383248076402714 - ((cos(cos(((((1.6167799320758691 - X2 ) / 1.8200802919912142) + -1.5383248076402714) + -0.5323195710835336))) / -1.498049699301652) * X1 )))
Generation=33 Avg Fitness=807.8183360509224 Best Fitness=145.42066830387031 Avg Size=216.81588
Best Individual: ((sin(sin((1.991067611317269 + 1.991067611317269))) - ((sin((4.831035486167748 - -1.498049699301652)) - 3.976105531438744) * X2 )) * (-1.8084072459865719 - ((cos(sin((0.5922135184022981 / ((((2.4489397826269252 * -2.83228739234623) * X2 ) / 1.202262936810918) + -1.5383248076402714)))) / -1.3441473701092677) * X1 )))
Generation=34 Avg Fitness=675.702560335884 Best Fitness=141.39098643218898 Avg Size=239.43232
Best Individual: ((sin(sin((3.52382943074187 + 1.991067611317269))) - ((sin((4.831035486167748 - -1.498049699301652)) - 3.976105531438744) * X2 )) * (-1.8084072459865719 - ((cos(sin(((X1  - -0.38247231504446955) / -1.5383248076402714))) / -1.3441473701092677) * X1 )))
Generation=35 Avg Fitness=1669.6316905204735 Best Fitness=141.39098643218898 Avg Size=224.30312
Best Individual: ((sin(sin((3.52382943074187 + 1.991067611317269))) - ((sin((4.831035486167748 - -1.498049699301652)) - 3.976105531438744) * X2 )) * (-1.8084072459865719 - ((cos(sin(((X1  - -0.38247231504446955) / -1.5383248076402714))) / -1.3441473701092677) * X1 )))
Generation=36 Avg Fitness=1247.4245979674477 Best Fitness=141.39098643218898 Avg Size=201.15938
Best Individual: ((sin(sin((3.52382943074187 + 1.991067611317269))) - ((sin((4.831035486167748 - -1.498049699301652)) - 3.976105531438744) * X2 )) * (-1.8084072459865719 - ((cos(sin(((X1  - -0.38247231504446955) / -1.5383248076402714))) / -1.3441473701092677) * X1 )))
Generation=37 Avg Fitness=3005.0125479679896 Best Fitness=141.39098643218898 Avg Size=205.69578
Best Individual: ((sin(sin((3.52382943074187 + 1.991067611317269))) - ((sin((4.831035486167748 - -1.498049699301652)) - 3.976105531438744) * X2 )) * (-1.8084072459865719 - ((cos(sin(((X1  - -0.38247231504446955) / -1.5383248076402714))) / -1.3441473701092677) * X1 )))
Generation=38 Avg Fitness=1497.4442679101878 Best Fitness=141.32806923651276 Avg Size=228.5966
Best Individual: ((sin(sin((2.2367260673112597 + 1.991067611317269))) - ((sin(-0.38247231504446955) - 4.106558201983695) * X2 )) * (-1.5383248076402714 - ((cos(cos(((((1.6167799320758691 - X2 ) / 1.8200802919912142) + -1.5383248076402714) + -0.5323195710835336))) / -1.3441473701092677) * X1 )))
Generation=39 Avg Fitness=2677.1581680241393 Best Fitness=137.8774998921803 Avg Size=238.66498
Best Individual: ((sin(sin((-2.7872768143783864 + 1.991067611317269))) - ((sin(3.003302211904032) - 4.106558201983695) * X2 )) * (-1.8084072459865719 - ((cos(sin((0.5922135184022981 / (((-1.8084072459865719 * X2 ) / X1 ) + -1.5383248076402714)))) / -1.3441473701092677) * X1 )))
Generation=40 Avg Fitness=986.4288130900483 Best Fitness=130.51786102069758 Avg Size=239.38008
Best Individual: ((sin(sin((3.52382943074187 + 1.991067611317269))) - ((sin((4.831035486167748 - -1.498049699301652)) - 3.976105531438744) * X2 )) * (-1.8084072459865719 - ((cos(sin(((X1  - ((2.9053013445575937 + -2.543324831932706) / X2 )) / -1.5383248076402714))) / -1.3441473701092677) * X1 )))
Generation=41 Avg Fitness=542.1936406946321 Best Fitness=130.51786102069758 Avg Size=246.99682
Best Individual: ((sin(sin((3.52382943074187 + 1.991067611317269))) - ((sin((4.831035486167748 - -1.498049699301652)) - 3.976105531438744) * X2 )) * (-1.8084072459865719 - ((cos(sin(((X1  - ((2.9053013445575937 + -2.543324831932706) / X2 )) / -1.5383248076402714))) / -1.3441473701092677) * X1 )))
Generation=42 Avg Fitness=770.8672359452793 Best Fitness=130.51786102069758 Avg Size=257.64912
Best Individual: ((sin(sin((3.52382943074187 + 1.991067611317269))) - ((sin((4.831035486167748 - -1.498049699301652)) - 3.976105531438744) * X2 )) * (-1.8084072459865719 - ((cos(sin(((X1  - ((2.9053013445575937 + -2.543324831932706) / X2 )) / -1.5383248076402714))) / -1.3441473701092677) * X1 )))
Generation=43 Avg Fitness=643.6937905045373 Best Fitness=130.51786102069758 Avg Size=261.35022
Best Individual: ((sin(sin((3.52382943074187 + 1.991067611317269))) - ((sin((4.831035486167748 - -1.498049699301652)) - 3.976105531438744) * X2 )) * (-1.8084072459865719 - ((cos(sin(((X1  - ((2.9053013445575937 + -2.543324831932706) / X2 )) / -1.5383248076402714))) / -1.3441473701092677) * X1 )))
Generation=44 Avg Fitness=714.8868489355576 Best Fitness=130.22851229673213 Avg Size=269.16954
Best Individual: ((sin(sin((3.52382943074187 + 1.991067611317269))) - ((sin((4.831035486167748 - -1.498049699301652)) - 3.976105531438744) * X2 )) * (-1.8084072459865719 - ((cos(sin(((X1  - ((2.9053013445575937 + -2.543324831932706) / X2 )) / 1.63529301837929))) / -1.3441473701092677) * X1 )))
Generation=45 Avg Fitness=734.9905579647815 Best Fitness=116.52293894201989 Avg Size=292.00824
Best Individual: ((sin(sin((2.2367260673112597 + 1.991067611317269))) - ((sin(-0.38247231504446955) - 4.106558201983695) * X2 )) * (-1.5383248076402714 - ((cos(cos(((((X1  - X2 ) / 1.8200802919912142) + -1.5383248076402714) + -2.83844100131865))) / -1.3441473701092677) * X1 )))
Generation=46 Avg Fitness=627.6355070079527 Best Fitness=116.52293894201989 Avg Size=291.6046
Best Individual: ((sin(sin((2.2367260673112597 + 1.991067611317269))) - ((sin(-0.38247231504446955) - 4.106558201983695) * X2 )) * (-1.5383248076402714 - ((cos(cos(((((X1  - X2 ) / 1.8200802919912142) + -1.5383248076402714) + -2.83844100131865))) / -1.3441473701092677) * X1 )))
Generation=47 Avg Fitness=497.39407407968116 Best Fitness=116.52293894201989 Avg Size=293.45998
Best Individual: ((sin(sin((2.2367260673112597 + 1.991067611317269))) - ((sin(-0.38247231504446955) - 4.106558201983695) * X2 )) * (-1.5383248076402714 - ((cos(cos(((((X1  - X2 ) / 1.8200802919912142) + -1.5383248076402714) + -2.83844100131865))) / -1.3441473701092677) * X1 )))
Generation=48 Avg Fitness=667.2658276406335 Best Fitness=110.53808112389878 Avg Size=282.64962
Best Individual: ((sin(sin((3.52382943074187 + 1.991067611317269))) - (((3.0835739901548855 * X2 ) - X2 ) * (-1.8084072459865719 - ((cos(sin(((X1  - ((2.9053013445575937 + -2.543324831932706) / X2 )) / -1.5383248076402714))) / -1.3441473701092677) * X1 )))) * -1.8707516493289456)
Generation=49 Avg Fitness=827.8756284275794 Best Fitness=110.53808112389878 Avg Size=279.71428
Best Individual: ((sin(sin((3.52382943074187 + 1.991067611317269))) - (((3.0835739901548855 * X2 ) - X2 ) * (-1.8084072459865719 - ((cos(sin(((X1  - ((2.9053013445575937 + -2.543324831932706) / X2 )) / -1.5383248076402714))) / -1.3441473701092677) * X1 )))) * -1.8707516493289456)
PROBLEM *NOT* SOLVED
Time:239.3829802sek==3.9897163366666666min
