lval:a,b,c,d,e,f...
{read lval;
write exp;
push exp;
pop; -> exp
inc lval; -> loc[lval]+=1.0;
lval = exp;
mov exp exp; mov 12.3 17.3; -> lok[12]=17.2 (może zawijać)
if(exp1){exp2}
while(exp1){exp2}
{(exp;)*expn}->expn - wiele dzieci, zwraca ostatnie
}
+funkcje zdefiniowane przez użytkownika jako przydatne!
sqrt
(wrap 100;shift=100)//zawijanie po stu,przesunięcie ramki o sto.
(alloc 100 def 2.3)//pamięć stuelementowa, ustawa blok w pamięci kodu miejscu 2
{
	a=pop;
	b=pop;
	c=pop;
	d=b^2-4*a*c;
	push (-b-d^(1/2)/(2*a);
	push (-b+d^(1/2)/(2*a));
}
call 2.3;
//rozwiązywanie pierwiastków róznania kwadratowego
a b c -> x1 x2
push i-1; mov b (call 2.3);