X1 X2 cel podstawowe
-1.0 -1.0 12.0 11.999062452250415
-1.0 -0.9047619047619048 11.047619047619047 11.046694818497068
-1.0 -0.8095238095238095 10.095238095238095 10.094326747630223
-1.0 -0.7142857142857143 9.142857142857142 9.141957986851596
-1.0 -0.6190476190476191 8.190476190476192 8.189588032605387
-1.0 -0.5238095238095238 7.238095238095239 7.237215691758497
-1.0 -0.4285714285714286 6.285714285714286 6.284837096960112
-1.0 -0.33333333333333337 5.333333333333334 5.3324245191098
-1.0 -0.23809523809523814 4.380952380952381 4.3802128836432885
-1.0 -0.1428571428571429 3.4285714285714293 3.427757901434121
-1.0 -0.04761904761904767 2.4761904761904767 2.475295126903991
-1.0 0.04761904761904745 1.5238095238095255 1.5231362961873556
-1.0 0.1428571428571428 0.5714285714285721 0.570702953858378
-1.0 0.23809523809523814 -0.3809523809523814 -0.3816721529067719
-1.0 0.33333333333333326 -1.333333333333333 -1.3340408975818059
-1.0 0.4285714285714284 -2.285714285714284 -2.2864114722165683
-1.0 0.5238095238095237 -3.2380952380952372 -3.238778258985839
-1.0 0.6190476190476191 -4.190476190476192 -4.191145475141704
-1.0 0.7142857142857142 -5.1428571428571415 -5.143512580949944
-1.0 0.8095238095238093 -6.095238095238093 -6.095879566988888
-1.0 0.9047619047619047 -7.047619047619046 -7.04824645261661
-1.0 1.0 -8.0 -8.000613257019165
-0.9047619047619048 -1.0 11.532879818594104 11.532170629004545
-0.9047619047619048 -0.9047619047619048 10.607709750566894 10.607013134421976
-0.9047619047619048 -0.8095238095238095 9.682539682539684 9.681855202804305
-0.9047619047619048 -0.7142857142857143 8.757369614512472 8.756696581436515
-0.9047619047619048 -0.6190476190476191 7.832199546485262 7.831536766939395
-0.9047619047619048 -0.5238095238095238 6.907029478458051 6.906374566574698
-0.9047619047619048 -0.4285714285714286 5.98185941043084 5.981206113930497
-0.9047619047619048 -0.33333333333333337 5.0566893424036286 5.056003682272535
-0.9047619047619048 -0.23809523809523814 4.1315192743764175 4.131002202987724
-0.9047619047619048 -0.1428571428571429 3.206349206349207 3.2057573965631523
-0.9047619047619048 -0.04761904761904767 2.281179138321996 2.2805047717003406
-0.9047619047619048 0.04761904761904745 1.3560090702947862 1.3555558950272755
-0.9047619047619048 0.1428571428571428 0.4308390022675743 0.4303326351212524
-0.9047619047619048 0.23809523809523814 -0.4943310657596376 -0.4948322657057218
-0.9047619047619048 0.33333333333333326 -1.4195011337868477 -1.4199908264638033
-0.9047619047619048 0.4285714285714284 -2.344671201814057 -2.345151239272666
-0.9047619047619048 0.5238095238095237 -3.269841269841269 -3.270307875049915
-0.9047619047619048 0.6190476190476191 -4.195011337868482 -4.195464945402934
-0.9047619047619048 0.7142857142857142 -5.120181405895691 -5.1206219080521205
-0.9047619047619048 0.8095238095238093 -6.045351473922901 -6.04577875237644
-0.9047619047619048 0.9047619047619047 -6.970521541950112 -6.970935497129934
-0.9047619047619048 1.0 -7.895691609977325 -7.896092161174254
-0.8095238095238095 -1.0 11.08390022675737 11.083397341864435
-0.8095238095238095 -0.9047619047619048 10.1859410430839 10.185449986452964
-0.8095238095238095 -0.8095238095238095 9.287981859410431 9.287502194084425
-0.8095238095238095 -0.7142857142857143 8.390022675736962 8.389553712126393
-0.8095238095238095 -0.6190476190476191 7.492063492063493 7.491604037374588
-0.8095238095238095 -0.5238095238095238 6.5941043083900235 6.593651977481208
-0.8095238095238095 -0.4285714285714286 5.696145124716553 5.695693666961072
-0.8095238095238095 -0.33333333333333337 4.798185941043084 4.79770138141073
-0.8095238095238095 -0.23809523809523814 3.900226757369615 3.899910058070274
-0.8095238095238095 -0.1428571428571429 3.0022675736961455 3.0018754269229992
-0.8095238095238095 -0.04761904761904767 2.104308390022676 2.1038329520253223
-0.8095238095238095 0.04761904761904745 1.2063492063492078 1.2060940290087725
-0.8095238095238095 0.1428571428571428 0.30839002267573745 0.3080808495833054
-0.8095238095238095 0.23809523809523814 -0.5895691609977329 -0.5898738440366331
-0.8095238095238095 0.33333333333333326 -1.4875283446712015 -1.4878222199928588
-0.8095238095238095 0.4285714285714284 -2.3854875283446697 -2.3857724705915055
-0.8095238095238095 0.5238095238095237 -3.28344671201814 -3.2837189552071546
-0.8095238095238095 0.6190476190476191 -4.1814058956916105 -4.181665879675857
-0.8095238095238095 0.7142857142857142 -5.079365079365078 -5.079612699123343
-0.8095238095238095 0.8095238095238093 -5.977324263038547 -5.977559401708991
-0.8095238095238095 0.9047619047619047 -6.875283446712017 -6.875506005573829
-0.8095238095238095 1.0 -7.773242630385488 -7.773452529250777
-0.7142857142857143 -1.0 10.653061224489797 10.65274259083028
-0.7142857142857143 -0.9047619047619048 9.782312925170068 9.782005374590161
-0.7142857142857143 -0.8095238095238095 8.91156462585034 8.911267721470642
-0.7142857142857143 -0.7142857142857143 8.040816326530612 8.040529378921242
-0.7142857142857143 -0.6190476190476191 7.170068027210885 7.169789843910956
-0.7142857142857143 -0.5238095238095238 6.299319727891157 6.299047924478121
-0.7142857142857143 -0.4285714285714286 5.428571428571429 5.428299756052342
-0.7142857142857143 -0.33333333333333337 4.557823129251701 4.557517616526374
-0.7142857142857143 -0.23809523809523814 3.6870748299319733 3.6869364488977787
-0.7142857142857143 -0.1428571428571429 2.8163265306122454 2.8161119925309785
-0.7142857142857143 -0.04761904761904767 1.9455782312925174 1.9452796678854158
-0.7142857142857143 0.04761904761904745 1.0748299319727908 1.0747506981192214
-0.7142857142857143 0.1428571428571428 0.2040816326530619 0.20394759716803734
-0.7142857142857143 0.23809523809523814 -0.666666666666667 -0.6667968879399464
-0.7142857142857143 0.33333333333333326 -1.537414965986394 -1.5375350781843766
-0.7142857142857143 0.4285714285714284 -2.4081632653061207 -2.4082751661793065
-0.7142857142857143 0.5238095238095237 -3.278911564625849 -3.2790114994603705
-0.7142857142857143 0.6190476190476191 -4.149659863945579 -4.149748277961875
-0.7142857142857143 0.7142857142857142 -5.020408163265305 -5.020484954164353
-0.7142857142857143 0.8095238095238093 -5.891156462585032 -5.891221514986929
-0.7142857142857143 0.9047619047619047 -6.761904761904761 -6.761957977948455
-0.7142857142857143 1.0 -7.63265306122449 -7.632694361248737
-0.6190476190476191 -1.0 10.240362811791384 10.240206375902568
-0.6190476190476191 -0.9047619047619048 9.396825396825397 9.39667929883389
-0.6190476190476191 -0.8095238095238095 8.55328798185941 8.553151784963141
-0.6190476190476191 -0.7142857142857143 7.709750566893424 7.709623581821135
-0.6190476190476191 -0.6190476190476191 6.866213151927438 6.866094186548505
-0.6190476190476191 -0.5238095238095238 6.022675736961451 6.022562407565477
-0.6190476190476191 -0.4285714285714286 5.179138321995465 5.179024381204719
-0.6190476190476191 -0.33333333333333337 4.3356009070294785 4.335452387621302
-0.6190476190476191 -0.23809523809523814 3.4920634920634925 3.492081375476804
-0.6190476190476191 -0.1428571428571429 2.648526077097506 2.648467093403894
-0.6190476190476191 -0.04761904761904767 1.8049886621315196 1.804844919286999
-0.6190476190476191 0.04761904761904745 0.9614512471655343 0.9615259023457792
-0.6190476190476191 0.1428571428571428 0.11791383219954699 0.11793287779625605
-0.6190476190476191 0.23809523809523814 -0.7256235827664403 -0.7256013974574613
-0.6190476190476191 0.33333333333333326 -1.5691609977324257 -1.5691294010542374
-0.6190476190476191 0.4285714285714284 -2.4126984126984112 -2.4126593260424984
-0.6190476190476191 0.5238095238095237 -3.2562358276643986 -3.256185507812492
-0.6190476190476191 0.6190476190476191 -4.099773242630386 -4.099712140262451
-0.6190476190476191 0.7142857142857142 -4.943310657596371 -4.9432386731758955
-0.6190476190476191 0.8095238095238093 -5.786848072562357 -5.786765092210588
-0.6190476190476191 0.9047619047619047 -6.6303854875283434 -6.630291414253857
-0.6190476190476191 1.0 -7.473922902494332 -7.473817657167935
-0.5238095238095238 -1.0 9.845804988662131 9.84578869708263
-0.5238095238095238 -0.9047619047619048 9.029478458049887 9.029471759185098
-0.5238095238095238 -0.8095238095238095 8.213151927437643 8.213154384562513
-0.5238095238095238 -0.7142857142857143 7.396825396825397 7.396836320826338
-0.5238095238095238 -0.6190476190476191 6.580498866213153 6.580517065287252
-0.5238095238095238 -0.5238095238095238 5.764172335600907 5.764195426743184
-0.5238095238095238 -0.4285714285714286 4.947845804988662 4.9478675424183605
-0.5238095238095238 -0.33333333333333337 4.1315192743764175 4.131505694696994
-0.5238095238095238 -0.23809523809523814 3.3151927437641726 3.3153448378134387
-0.5238095238095238 -0.1428571428571429 2.498866213151928 2.498940729557917
-0.5238095238095238 -0.04761904761904767 1.682539682539683 1.6825287062363359
-0.5238095238095238 0.04761904761904745 0.8662131519274391 0.8664196416753869
-0.5238095238095238 0.1428571428571428 0.04988662131519328 0.05003669138600242
-0.5238095238095238 0.23809523809523814 -0.7664399092970526 -0.7662873726324257
-0.5238095238095238 0.33333333333333326 -1.5827664399092969 -1.5826051886189243
-0.5238095238095238 0.4285714285714284 -2.3990929705215405 -2.398924950187862
-0.5238095238095238 0.5238095238095237 -3.215419501133786 -3.2152409802666853
-0.5238095238095238 0.6190476190476191 -4.0317460317460325 -4.031557466579182
-0.5238095238095238 0.7142857142857142 -4.848072562358276 -4.847873856158726
-0.5238095238095238 0.8095238095238093 -5.66439909297052 -5.664190133380131
-0.5238095238095238 0.9047619047619047 -6.4807256235827655 -6.480506314489701
-0.5238095238095238 1.0 -7.297052154195011 -7.296822417007556
-0.4285714285714286 -1.0 9.46938775510204 9.469489554375789
-0.4285714285714286 -0.9047619047619048 8.680272108843537 8.680382755647575
-0.4285714285714286 -0.8095238095238095 7.891156462585034 7.891275520271151
-0.4285714285714286 -0.7142857142857143 7.1020408163265305 7.102167595938002
-0.4285714285714286 -0.6190476190476191 6.312925170068028 6.313058480127276
-0.4285714285714286 -0.5238095238095238 5.523809523809524 5.523946982010515
-0.4285714285714286 -0.4285714285714286 4.73469387755102 4.734829239692245
-0.4285714285714286 -0.33333333333333337 3.9455782312925174 3.945677537753414
-0.4285714285714286 -0.23809523809523814 3.156462585034014 3.1567268359121847
-0.4285714285714286 -0.1428571428571429 2.3673469387755106 2.3675329010079347
-0.4285714285714286 -0.04761904761904767 1.5782312925170072 1.5783310287395134
-0.4285714285714286 0.04761904761904745 0.7891156462585048 0.7894319160948093
-0.4285714285714286 0.1428571428571428 5.551115123125783e-16 2.590378526721171E-4
-0.4285714285714286 0.23809523809523814 -0.7891156462585038 -0.7888548135097586
-0.4285714285714286 0.33333333333333326 -1.5782312925170063 -1.577962440896129
-0.4285714285714286 0.4285714285714284 -2.367346938775509 -2.3670720386232977
-0.4285714285714286 0.5238095238095237 -3.1564625850340127 -3.156177916827052
-0.4285714285714286 0.6190476190476191 -3.945578231292518 -3.9452842569142144
-0.4285714285714286 0.7142857142857142 -4.7346938775510194 -4.7343905031135645
-0.4285714285714286 0.8095238095238093 -5.523809523809522 -5.5234966384949375
-0.4285714285714286 0.9047619047619047 -6.312925170068026 -6.312602678653923
-0.4285714285714286 1.0 -7.1020408163265305 -7.101708640763919
-0.33333333333333337 -1.0 9.11111111111111 9.111308947843238
-0.33333333333333337 -0.9047619047619048 8.349206349206348 8.349412288265171
-0.33333333333333337 -0.8095238095238095 7.587301587301588 7.587515192116994
-0.33333333333333337 -0.7142857142857143 6.825396825396825 6.825617407169705
-0.33333333333333337 -0.6190476190476191 6.063492063492064 6.0637184310695424
-0.33333333333333337 -0.5238095238095238 5.301587301587302 5.301817073357892
-0.33333333333333337 -0.4285714285714286 4.5396825396825395 4.5399094730090175
-0.33333333333333337 -0.33333333333333337 3.777777777777778 3.777967916769853
-0.33333333333333337 -0.23809523809523814 3.0158730158730163 3.016227369757383
-0.33333333333333337 -0.1428571428571429 2.2539682539682544 2.254243607756395
-0.33333333333333337 -0.04761904761904767 1.4920634920634925 1.4922518868013752
-0.33333333333333337 0.04761904761904745 0.7301587301587316 0.7305627255913649
-0.33333333333333337 0.1428571428571428 -0.03174603174603119 -0.03140008288694962
-0.33333333333333337 0.23809523809523814 -0.7936507936507939 -0.7933037201388591
-0.33333333333333337 0.33333333333333326 -1.5555555555555554 -1.5552011579146432
-0.33333333333333337 0.4285714285714284 -2.317460317460316 -2.3171005913704663
-0.33333333333333337 0.5238095238095237 -3.079365079365079 -3.0789963175100015
-0.33333333333333337 0.6190476190476191 -3.841269841269842 -3.8408925112770866
-0.33333333333333337 0.7142857142857142 -4.603174603174602 -4.602788614040605
-0.33333333333333337 0.8095238095238093 -5.365079365079364 -5.364684607543196
-0.33333333333333337 0.9047619047619047 -6.126984126984126 -6.126580506719998
-0.33333333333333337 1.0 -6.888888888888889 -6.8884763283930415
-0.23809523809523814 -1.0 8.770975056689343 8.771246877149284
-0.23809523809523814 -0.9047619047619048 8.03628117913832 8.036560356797334
-0.23809523809523814 -0.8095238095238095 7.301587301587302 7.301873399946686
-0.23809523809523814 -0.7142857142857143 6.566893424036281 6.567185754446788
-0.23809523809523814 -0.6190476190476191 5.832199546485262 5.8324969181087205
-0.23809523809523814 -0.5238095238095238 5.09750566893424 5.09780570083855
-0.23809523809523814 -0.4285714285714286 4.36281179138322 4.363108242467171
-0.23809523809523814 -0.33333333333333337 3.6281179138321997 3.6283768318719822
-0.23809523809523814 -0.23809523809523814 2.8934240362811794 2.893846439475154
-0.23809523809523814 -0.1428571428571429 2.158730158730159 2.159072849890663
-0.23809523809523814 -0.04761904761904767 1.4240362811791387 1.4242912804348524
-0.23809523809523814 0.04761904761904745 0.6893424036281193 0.68981207014651
-0.23809523809523814 0.1428571428571428 -0.04535147392290195 -0.04494067095116416
-0.23809523809523814 0.23809523809523814 -0.7800453514739232 -0.77963409254975
-0.23809523809523814 0.33333333333333326 -1.514739229024943 -1.5143213396283117
-0.23809523809523814 0.4285714285714284 -2.249433106575962 -2.249010608354598
-0.23809523809523814 0.5238095238095237 -2.9841269841269833 -2.983696182245013
-0.23809523809523814 0.6190476190476191 -3.7188208616780054 -3.718382229625063
-0.23809523809523814 0.7142857142857142 -4.453514739229024 -4.453068188943882
-0.23809523809523814 0.8095238095238093 -5.188208616780043 -5.187754040592535
-0.23809523809523814 0.9047619047619047 -5.922902494331065 -5.92243979883501
-0.23809523809523814 1.0 -6.657596371882086 -6.657125480137
-0.1428571428571429 -1.0 8.448979591836736 8.449303342788513
-0.1428571428571429 -0.9047619047619048 7.741496598639456 7.741826961598379
-0.1428571428571429 -0.8095238095238095 7.034013605442177 7.034350143986039
-0.1428571428571429 -0.7142857142857143 6.326530612244898 6.326872637879138
-0.1428571428571429 -0.6190476190476191 5.6190476190476195 5.61939394125265
-0.1428571428571429 -0.5238095238095238 4.911564625850341 4.911912864374367
-0.1428571428571429 -0.4285714285714286 4.204081632653061 4.204425547922928
-0.1428571428571429 -0.33333333333333337 3.4965986394557826 3.4969042828792674
-0.1428571428571429 -0.23809523809523814 2.789115646258504 2.7895840448946867
-0.1428571428571429 -0.1428571428571429 2.081632653061225 2.082020627319312
-0.1428571428571429 -0.04761904761904767 1.374149659863946 1.3744492096356844
-0.1428571428571429 0.04761904761904745 0.6666666666666679 0.6671799497532025
-0.1428571428571429 0.1428571428571428 -0.040816326530611846 -0.04036272639507921
-0.1428571428571429 0.23809523809523814 -0.7482993197278915 -0.747845930817949
-0.1428571428571429 0.33333333333333326 -1.45578231292517 -1.455322986149213
-0.1428571428571429 0.4285714285714284 -2.1632653061224474 -2.162802089703054
-0.1428571428571429 0.5238095238095237 -2.870748299319727 -2.8702775111435255
-0.1428571428571429 0.6190476190476191 -3.5782312925170077 -3.5777534120247916
-0.1428571428571429 0.7142857142857142 -4.285714285714285 -4.285229227819439
-0.1428571428571429 0.8095238095238093 -4.9931972789115635 -4.992704937544487
-0.1428571428571429 0.9047619047619047 -5.700680272108842 -5.700180554783018
-0.1428571428571429 1.0 -6.408163265306123 -6.407656095639679
-0.04761904761904767 -1.0 8.145124716553287 8.14547834449953
-0.04761904761904767 -0.9047619047619048 7.464852607709751 7.465212102481055
-0.04761904761904767 -0.8095238095238095 6.784580498866213 6.784945424115703
-0.04761904761904767 -0.7142857142857143 6.104308390022676 6.10467805740865
-0.04761904761904767 -0.6190476190476191 5.424036281179139 5.424409500497181
-0.04761904761904767 -0.5238095238095238 4.743764172335601 4.744138564006776
-0.04761904761904767 -0.4285714285714286 4.063492063492063 4.063861389452995
-0.04761904761904767 -0.33333333333333337 3.3832199546485264 3.3835502698897884
-0.04761904761904767 -0.23809523809523814 2.7029478458049887 2.703440186115138
-0.04761904761904767 -0.1428571428571429 2.0226757369614514 2.0230869401129086
-0.04761904761904767 -0.04761904761904767 1.3424036281179141 1.3427256744150897
-0.04761904761904767 0.04761904761904745 0.6621315192743776 0.6626663643934507
-0.04761904761904767 0.1428571428571428 -0.018140589569160648 -0.017666249337954243
-0.04761904761904767 0.23809523809523814 -0.6984126984126988 -0.69793923498081
-0.04761904761904767 0.33333333333333326 -1.3786848072562354 -1.3782060974463917
-0.04761904761904767 0.4285714285714284 -2.058956916099772 -2.05847503535954
-0.04761904761904767 0.5238095238095237 -2.73922902494331 -2.7387403041514817
-0.04761904761904767 0.6190476190476191 -3.4195011337868486 -3.4190060584434168
-0.04761904761904767 0.7142857142857142 -4.099773242630385 -4.099271730670614
-0.04761904761904767 0.8095238095238093 -4.780045351473921 -4.779537298451773
-0.04761904761904767 0.9047619047619047 -5.46031746031746 -5.459802774678503
-0.04761904761904767 1.0 -6.140589569160998 -6.140068175089442
0.04761904761904745 -1.0 7.859410430839003 7.85977188230997
0.04761904761904745 -0.9047619047619048 7.2063492063492065 7.206715779465133
0.04761904761904745 -0.8095238095238095 6.553287981859411 6.5536592403482565
0.04761904761904745 -0.7142857142857143 5.900226757369615 5.900602013041434
0.04761904761904745 -0.6190476190476191 5.247165532879819 5.247543595842748
0.04761904761904745 -0.5238095238095238 4.594104308390023 4.594482799731522
0.04761904761904745 -0.4285714285714286 3.941043083900227 3.9414157670498122
0.04761904761904745 -0.33333333333333337 3.287981859410431 3.2883147928951075
0.04761904761904745 -0.23809523809523814 2.6349206349206353 2.635414863132306
0.04761904761904745 -0.1428571428571429 1.9818594104308396 1.9822717882796068
0.04761904761904745 -0.04761904761904767 1.3287981859410434 1.3291206747782531
0.04761904761904745 0.04761904761904745 0.6757369614512483 0.6762713140530909
0.04761904761904745 0.1428571428571428 0.022675736961451642 0.023148760120389023
0.04761904761904745 0.23809523809523814 -0.630385487528345 -0.6299140050927381
0.04761904761904745 0.33333333333333326 -1.2834467120181405 -1.2829706735442896
0.04761904761904745 0.4285714285714284 -1.9365079365079354 -1.9360294453381781
0.04761904761904745 0.5238095238095237 -2.589569160997732 -2.5890845612781535
0.04761904761904745 0.6190476190476191 -3.242630385487529 -3.2421401688861335
0.04761904761904745 0.7142857142857142 -3.895691609977324 -3.8951956974979707
0.04761904761904745 0.8095238095238093 -4.548752834467119 -4.5482511233093454
0.04761904761904745 0.9047619047619047 -5.2018140589569155 -5.201306458509686
0.04761904761904745 1.0 -5.854875283446712 -5.854361718466581
0.1428571428571428 -1.0 7.591836734693878 7.5921839562235025
0.1428571428571428 -0.9047619047619048 6.965986394557823 6.9663379925532265
0.1428571428571428 -0.8095238095238095 6.3401360544217695 6.340491592685345
0.1428571428571428 -0.7142857142857143 5.714285714285714 5.714644504778269
0.1428571428571428 -0.6190476190476191 5.08843537414966 5.0887962272894045
0.1428571428571428 -0.5238095238095238 4.462585034013606 4.462945571548128
0.1428571428571428 -0.4285714285714286 3.836734693877551 3.837088680712787
0.1428571428571428 -0.33333333333333337 3.2108843537414966 3.2111978518955677
0.1428571428571428 -0.23809523809523814 2.5850340136054424 2.5855080759503988
0.1428571428571428 -0.1428571428571429 1.9591836734693882 1.9595751718323462
0.1428571428571428 -0.04761904761904767 1.3333333333333337 1.333634210730768
0.1428571428571428 0.04761904761904745 0.7074829931972799 0.7079947987173538
0.1428571428571428 0.1428571428571428 0.0816326530612248 0.0820823018743162
0.1428571428571428 0.23809523809523814 -0.5442176870748303 -0.5437702412087666
0.1428571428571428 0.33333333333333326 -1.1700680272108843 -1.1696167144633651
0.1428571428571428 0.4285714285714284 -1.7959183673469377 -1.795465319647448
0.1428571428571428 0.5238095238095237 -2.4217687074829928 -2.4213102825276325
0.1428571428571428 0.6190476190476191 -3.0476190476190483 -3.047155743355024
0.1428571428571428 0.7142857142857142 -3.6734693877551017 -3.6730011283023183
0.1428571428571428 0.8095238095238093 -4.299319727891155 -4.298846412116948
0.1428571428571428 0.9047619047619047 -4.92517006802721 -4.924691606275242
0.1428571428571428 1.0 -5.551020408163265 -5.550536725768618
0.23809523809523814 -1.0 7.342403628117914 7.342714566241157
0.23809523809523814 -0.9047619047619048 6.7437641723356005 6.7440787417460575
0.23809523809523814 -0.8095238095238095 6.145124716553288 6.1454424811274135
0.23809523809523814 -0.7142857142857143 5.546485260770975 5.546805532619357
0.23809523809523814 -0.6190476190476191 4.947845804988662 4.948167394837161
0.23809523809523814 -0.5238095238095238 4.34920634920635 4.349526879456535
0.23809523809523814 -0.4285714285714286 3.750566893424036 3.750880130442086
0.23809523809523814 -0.33333333333333337 3.1519274376417235 3.1521994468924452
0.23809523809523814 -0.23809523809523814 2.5532879818594107 2.5537198245744346
0.23809523809523814 -0.1428571428571429 1.954648526077098 1.9549970907842875
0.23809523809523814 -0.04761904761904767 1.356009070294785 1.356266282278198
0.23809523809523814 0.04761904761904745 0.7573696145124728 0.7578368183711609
0.23809523809523814 0.1428571428571428 0.15873015873015917 0.1591343758138979
0.23809523809523814 0.23809523809523814 -0.43990929705215454 -0.4395079433857616
0.23809523809523814 0.33333333333333326 -1.0385487528344668 -1.0381442202241595
0.23809523809523814 0.4285714285714284 -1.637188208616779 -1.6367826582953728
0.23809523809523814 0.5238095238095237 -2.235827664399092 -2.235417467903508
0.23809523809523814 0.6190476190476191 -2.8344671201814062 -2.834052781851846
0.23809523809523814 0.7142857142857142 -3.433106575963718 -3.4326880230845056
0.23809523809523814 0.8095238095238093 -4.03174603174603 -4.0313231648748555
0.23809523809523814 0.9047619047619047 -4.6303854875283434 -4.629958217975002
0.23809523809523814 1.0 -5.229024943310657 -5.228593196994977
0.33333333333333326 -1.0 7.111111111111112 7.111363712363326
0.33333333333333326 -0.9047619047619048 6.5396825396825395 6.539938027043892
0.33333333333333326 -0.8095238095238095 5.968253968253968 5.968511905674615
0.33333333333333326 -0.7142857142857143 5.396825396825397 5.397085096564755
0.33333333333333326 -0.6190476190476191 4.825396825396826 4.82565709848602
0.33333333333333326 -0.5238095238095238 4.253968253968255 4.254226723456784
0.33333333333333326 -0.4285714285714286 3.682539682539683 3.6827901162380563
0.33333333333333326 -0.33333333333333337 3.111111111111111 3.111319577887219
0.33333333333333326 -0.23809523809523814 2.53968253968254 2.54005010900953
0.33333333333333326 -0.1428571428571429 1.9682539682539686 1.968537545148398
0.33333333333333326 -0.04761904761904767 1.3968253968253972 1.3970168894260406
0.33333333333333326 0.04761904761904745 0.8253968253968264 0.8257973729991466
0.33333333333333326 0.1428571428571428 0.2539682539682543 0.25430498182486994
0.33333333333333326 0.23809523809523814 -0.3174603174603179 -0.31712711168261976
0.33333333333333326 0.33333333333333326 -0.8888888888888888 -0.8885531908476942
0.33333333333333326 0.4285714285714284 -1.4603174603174596 -1.4599814612900073
0.33333333333333326 0.5238095238095237 -2.0317460317460316 -2.0314061174092872
0.33333333333333326 0.6190476190476191 -2.6031746031746037 -2.6028312843783006
0.33333333333333326 0.7142857142857142 -3.174603174603174 -3.1742563818453995
0.33333333333333326 0.8095238095238093 -3.746031746031745 -3.7456813815834824
0.33333333333333326 0.9047619047619047 -4.317460317460316 -4.317106293609083
0.33333333333333326 1.0 -4.888888888888889 -4.8885311321455465
0.4285714285714284 -1.0 6.8979591836734695 6.8981313945901785
0.4285714285714284 -0.9047619047619048 6.35374149659864 6.35391584844684
0.4285714285714284 -0.8095238095238095 5.80952380952381 5.8096998663270005
0.4285714285714284 -0.7142857142857143 5.26530612244898 5.265483196614474
0.4285714285714284 -0.6190476190476191 4.721088435374151 4.7212653382359795
0.4285714285714284 -0.5238095238095238 4.17687074829932 4.177045103548946
0.4285714285714284 -0.4285714285714286 3.63265306122449 3.6328186381010967
0.4285714285714284 -0.33333333333333337 3.08843537414966 3.0885582448814155
0.4285714285714284 -0.23809523809523814 2.54421768707483 2.5444989292607576
0.4285714285714284 -0.1428571428571429 2.0 2.0001965349373694
0.4285714285714284 -0.04761904761904767 1.4557823129251704 1.4558860321797171
0.4285714285714284 0.04761904761904745 0.9115646258503409 0.9118764625856568
0.4285714285714284 0.1428571428571428 0.3673469387755104 0.367594119788458
0.4285714285714284 0.23809523809523814 -0.17687074829932037 -0.17662774616038246
0.4285714285714284 0.33333333333333326 -0.7210884353741498 -0.7208436263555733
0.4285714285714284 0.4285714285714284 -1.2653061224489788 -1.2650617286395434
0.4285714285714284 0.5238095238095237 -1.8095238095238093 -1.8092762310485042
0.4285714285714284 0.6190476190476191 -2.3537414965986407 -2.3534912509360897
0.4285714285714284 0.7142857142857142 -2.8979591836734695 -2.8977062045858766
0.4285714285714284 0.8095238095238093 -3.442176870748299 -3.441921062243286
0.4285714285714284 0.9047619047619047 -3.986394557823129 -3.9861358331776993
0.4285714285714284 1.0 -4.53061224489796 -4.530350531220375
0.5238095238095237 -1.0 6.702947845804989 6.703017612921788
0.5238095238095237 -0.9047619047619048 6.185941043083901 6.186012205954937
0.5238095238095237 -0.8095238095238095 5.6689342403628125 5.669006363084577
0.5238095238095237 -0.7142857142857143 5.1519274376417235 5.151999832768503
0.5238095238095237 -0.6190476190476191 4.634920634920635 4.634992114087037
0.5238095238095237 -0.5238095238095238 4.117913832199546 4.117982019733107
0.5238095238095237 -0.4285714285714286 3.600907029478458 3.600965696031629
0.5238095238095237 -0.33333333333333337 3.0839002267573696 3.0839154478765614
0.5238095238095237 -0.23809523809523814 2.566893424036281 2.5670662853331017
0.5238095238095237 -0.1428571428571429 2.049886621315193 2.0499740601636023
0.5238095238095237 -0.04761904761904767 1.5328798185941044 1.5328737105445733
0.5238095238095237 0.04761904761904745 1.0158730158730167 1.0160740871147453
0.5238095238095237 0.1428571428571428 0.4988662131519277 0.49900178958116526
0.5238095238095237 0.23809523809523814 -0.018140589569161314 -0.01800984688234375
0.5238095238095237 0.33333333333333326 -0.5351473922902494 -0.5350155267700323
0.5238095238095237 0.4285714285714284 -1.0521541950113371 -1.0520234603523517
0.5238095238095237 0.5238095238095237 -1.5691609977324261 -1.5690278088247396
0.5238095238095237 0.6190476190476191 -2.0861678004535156 -2.0860326815269294
0.5238095238095237 0.7142857142857142 -2.603174603174603 -2.603037491306834
0.5238095238095237 0.8095238095238093 -3.120181405895691 -3.120042206854757
0.5238095238095237 0.9047619047619047 -3.637188208616779 -3.6370468366811135
0.5238095238095237 1.0 -4.154195011337869 -4.154051394219577
0.6190476190476191 -1.0 6.526077097505668 6.526022367358189
0.6190476190476191 -0.9047619047619048 6.036281179138322 6.0362270995681975
0.6190476190476191 -0.8095238095238095 5.546485260770975 5.546431395947339
0.6190476190476191 -0.7142857142857143 5.056689342403628 5.056635005026819
0.6190476190476191 -0.6190476190476191 4.566893424036282 4.5668374260391875
0.6190476190476191 -0.5238095238095238 4.0770975056689345 4.07703747200936
0.6190476190476191 -0.4285714285714286 3.587301587301587 3.587231290030079
0.6190476190476191 -0.33333333333333337 3.0975056689342404 3.0973911868741695
0.6190476190476191 -0.23809523809523814 2.607709750566894 2.6077521772314443
0.6190476190476191 -0.1428571428571429 2.1179138321995468 2.1178701208392035
0.6190476190476191 -0.04761904761904767 1.6281179138321997 1.6279799245258786
0.6190476190476191 0.04761904761904745 1.1383219954648536 1.1383902465701667
0.6190476190476191 0.1428571428571428 0.6485260770975061 0.648527991074537
0.6190476190476191 0.23809523809523814 0.1587301587301586 0.15872658608584156
0.6190476190476191 0.33333333333333326 -0.331065759637188 -0.33106889211396995
0.6190476190476191 0.4285714285714284 -0.8208616780045341 -0.8208666564369942
0.6190476190476191 0.5238095238095237 -1.3106575963718816 -1.3106608507416377
0.6190476190476191 0.6190476190476191 -1.8004535147392295 -1.8004555761525596
0.6190476190476191 0.7142857142857142 -2.2902494331065752 -2.290250242009182
0.6190476190476191 0.8095238095238093 -2.780045351473922 -2.780044815418396
0.6190476190476191 0.9047619047619047 -3.269841269841269 -3.269839304119606
0.6190476190476191 1.0 -3.7596371882086164 -3.7596337211433033
0.7142857142857142 -1.0 6.36734693877551 6.367145657899391
0.7142857142857142 -0.9047619047619048 5.904761904761905 5.904560529286611
0.7142857142857142 -0.8095238095238095 5.4421768707483 5.4419749649152624
0.7142857142857142 -0.7142857142857143 4.979591836734694 4.979388713389399
0.7142857142857142 -0.6190476190476191 4.517006802721089 4.516801274092428
0.7142857142857142 -0.5238095238095238 4.054421768707483 4.054211460377798
0.7142857142857142 -0.4285714285714286 3.5918367346938775 3.59161542009687
0.7142857142857142 -0.33333333333333337 3.129251700680272 3.128985461875728
0.7142857142857142 -0.23809523809523814 2.666666666666667 2.6665566049605625
0.7142857142857142 -0.1428571428571429 2.2040816326530615 2.203884716975992
0.7142857142857142 -0.04761904761904767 1.741496598639456 1.7412046741288272
0.7142857142857142 0.04761904761904745 1.278911564625851 1.278824940935369
0.7142857142857142 0.1428571428571428 0.816326530612245 0.8161727241349148
0.7142857142857142 0.23809523809523814 0.35374149659863896 0.35358155267604485
0.7142857142857142 0.33333333333333326 -0.10884353741496611 -0.10900372241098166
0.7142857142857142 0.4285714285714284 -0.5714285714285707 -0.571591316902242
0.7142857142857142 0.5238095238095237 -1.0340136054421771 -1.034175356802913
0.7142857142857142 0.6190476190476191 -1.496598639455783 -1.4967599348147498
0.7142857142857142 0.7142857142857142 -1.9591836734693873 -1.9593444566938405
0.7142857142857142 0.8095238095238093 -2.4217687074829928 -2.421928887934719
0.7142857142857142 0.9047619047619047 -2.8843537414965983 -2.8845132354934773
0.7142857142857142 1.0 -3.346938775510205 -3.3470975119917314
0.8095238095238093 -1.0 6.226757369614512 6.22638748454539
0.8095238095238093 -0.9047619047619048 5.791383219954648 5.791012495110162
0.8095238095238093 -0.8095238095238095 5.356009070294785 5.3556370699883225
0.8095238095238093 -0.7142857142857143 4.920634920634921 4.920260957856215
0.8095238095238093 -0.6190476190476191 4.485260770975057 4.484883658246754
0.8095238095238093 -0.5238095238095238 4.049886621315193 4.049503984838514
0.8095238095238093 -0.4285714285714286 3.6145124716553285 3.6141180862324234
0.8095238095238093 -0.33333333333333337 3.179138321995465 3.178698272882701
0.8095238095238093 -0.23809523809523814 2.743764172335601 2.7434795685251276
0.8095238095238093 -0.1428571428571429 2.308390022675737 2.3080178485855045
0.8095238095238093 -0.04761904761904767 1.873015873015873 1.8725479593585401
0.8095238095238093 0.04761904761904745 1.4376417233560095 1.4373781701934887
0.8095238095238093 0.1428571428571428 1.002267573696145 1.0019359886231698
0.8095238095238093 0.23809523809523814 0.5668934240362806 0.5665550528175503
0.8095238095238093 0.33333333333333326 0.13151927437641664 0.13117998231461558
0.8095238095238093 0.4285714285714284 -0.30385487528344646 -0.30419744175707764
0.8095238095238093 0.5238095238095237 -0.7392290249433109 -0.7395713270123536
0.8095238095238093 0.6190476190476191 -1.1746031746031758 -1.1749457575152975
0.8095238095238093 0.7142857142857142 -1.6099773242630389 -1.610320135361748
0.8095238095238093 0.8095238095238093 -2.0453514739229024 -2.045694424404248
0.8095238095238093 0.9047619047619047 -2.4807256235827664 -2.481068630803028
0.8095238095238093 1.0 -2.9160997732426313 -2.916442766765038
0.9047619047619047 -1.0 6.104308390022676 6.103747847296171
0.9047619047619047 -0.9047619047619048 5.696145124716553 5.695582997038827
0.9047619047619047 -0.8095238095238095 5.287981859410431 5.287417711166488
0.9047619047619047 -0.7142857142857143 4.879818594104309 4.879251738427236
0.9047619047619047 -0.6190476190476191 4.471655328798187 4.47108457850216
0.9047619047619047 -0.5238095238095238 4.063492063492063 4.062915045391604
0.9047619047619047 -0.4285714285714286 3.655328798185941 3.6547392884371526
0.9047619047619047 -0.33333333333333337 3.2471655328798184 3.246529619896526
0.9047619047619047 -0.23809523809523814 2.8390022675736963 2.8385210679297055
0.9047619047619047 -0.1428571428571429 2.430839002267574 2.4302695156790035
0.9047619047619047 -0.04761904761904767 2.0226757369614514 2.022009780220066
0.9047619047619047 0.04761904761904745 1.6145124716553294 1.6140499343273416
0.9047619047619047 0.1428571428571428 1.2063492063492065 1.2058177843944213
0.9047619047619047 0.23809523809523814 0.7981859410430836 0.797647086436923
0.9047619047619047 0.33333333333333326 0.39002267573696114 0.38948222203775384
0.9047619047619047 0.4285714285714284 -0.018140589569160426 -0.01868503101070762
0.9047619047619047 0.5238095238095237 -0.42630385487528333 -0.4268487613738212
0.9047619047619047 0.6190476190476191 -0.8344671201814067 -0.8350130442560271
0.9047619047619047 0.7142857142857142 -1.2426303854875282 -1.2431772780138528
0.9047619047619047 0.8095238095238093 -1.6507936507936503 -1.651341424827512
0.9047619047619047 0.9047619047619047 -2.0589569160997727 -2.0595054900485765
0.9047619047619047 1.0 -2.467120181405896 -2.467669485463415
1.0 -1.0 6.0 5.999226746151721
1.0 -0.9047619047619048 5.619047619047619 5.618272035072585
1.0 -0.8095238095238095 5.238095238095238 5.23731688844973
1.0 -0.7142857142857143 4.857142857142858 4.8563610551024325
1.0 -0.6190476190476191 4.476190476190476 4.475404034858645
1.0 -0.5238095238095238 4.095238095238095 4.094444642037159
1.0 -0.4285714285714286 3.7142857142857144 3.71347902671147
1.0 -0.33333333333333337 3.3333333333333335 3.3324795029186127
1.0 -0.23809523809523814 2.9523809523809526 2.9516811031787604
1.0 -0.1428571428571429 2.5714285714285716 2.5706397182674845
1.0 -0.04761904761904767 2.1904761904761907 2.1895901367183814
1.0 0.04761904761904745 1.8095238095238102 1.808840233319417
1.0 0.1428571428571428 1.4285714285714288 1.4278181112977342
1.0 0.23809523809523814 1.0476190476190474 1.0468576534578828
1.0 0.33333333333333326 0.6666666666666667 0.6659029967325807
1.0 0.4285714285714284 0.2857142857142865 0.28494591532743097
1.0 0.5238095238095237 -0.0952380952380949 -0.09600765989125981
1.0 0.6190476190476191 -0.4761904761904767 -0.4769617950387983
1.0 0.7142857142857142 -0.8571428571428568 -0.8579158846511203
1.0 0.8095238095238093 -1.2380952380952372 -1.2388698892050554
1.0 0.9047619047619047 -1.6190476190476182 -1.6198238132304394
1.0 1.0 -2.0 -2.000777668087058
